digraph G {
fontname = "Bitstream Vera Sans"
fontsize = 8

overlap=false;

compound=true;    

node [
  fontname = "Bitstream Vera Sans"
  fontsize = 8
  shape = "record"
]

edge [
  fontname = "Bitstream Vera Sans"
  fontsize = 8
  mode="ipsep"            
]


DDI4_DatastoreLibrary [
  label = "{<id>DatastoreLibrary | + type : CollectionType \l + name : Name \l + purpose : StructuredString \l \l \l| <DatastoreLibrary_contains_association> contains \l| <DatastoreLibrary_realizes_association> realizes \l \l}"

  tooltip = "LogicalDataDescription:DatastoreLibrary"
]

subgraph LogicalDataDescription {
label = "LogicalDataDescription"    

  node [ color = "#0000ff" ]

DDI4_DataStore [
  label = "{<id>DDI_DataStore}"

  tooltip = "LogicalDataDescription:DataStore"
]

}

subgraph CollectionsPattern {
label = "CollectionsPattern"    

  node [ color = "#0000ff" ]

DDI4_Collection [
  label = "{<id>DDI_Collection}"

  tooltip = "CollectionsPattern:Collection"
]

}

subgraph Identification {
label = "Identification"    

  node [ color = "#0000ff" ]

DDI4_AnnotatedIdentifiable [
  label = "{<id>DDI_AnnotatedIdentifiable}"

  tooltip = "Identification:AnnotatedIdentifiable"
]

}

DDI4_DatastoreLibrary -> DDI4_AnnotatedIdentifiable [arrowhead=onormal color="#000000"];

  DDI4_DatastoreLibrary:DatastoreLibrary_contains_association -> DDI4_DataStore [ arrowhead=odiamond labeldistance=1.9 taillabel="0..n" headlabel="0..n" edgetooltip="contains" fontcolor="black" color="#00000"];

  DDI4_DatastoreLibrary:DatastoreLibrary_realizes_association -> DDI4_Collection [ arrowhead=none  edgetooltip="realizes" fontcolor="black" color="#00000"];

}