digraph G {
fontname = "Bitstream Vera Sans"
fontsize = 8

overlap=false;

compound=true;    

node [
  fontname = "Bitstream Vera Sans"
  fontsize = 8
  shape = "record"
]

edge [
  fontname = "Bitstream Vera Sans"
  fontsize = 8
  mode="ipsep"            
]


DDI4_InstanceVariableMapping [
  label = "{<id>InstanceVariableMapping | \l \l| <InstanceVariableMapping_maps_association> maps \l| <InstanceVariableMapping_realizes_association> realizes \l \l}"

  tooltip = "LogicalDataDescription:InstanceVariableMapping"
]

subgraph Conceptual {
label = "Conceptual"    

  node [ color = "#0000ff" ]

DDI4_InstanceVariable [
  label = "{<id>DDI_InstanceVariable}"

  tooltip = "Conceptual:InstanceVariable"
]

}

subgraph CollectionsPattern {
label = "CollectionsPattern"    

  node [ color = "#0000ff" ]

DDI4_UnorderedTuple [
  label = "{<id>DDI_UnorderedTuple}"

  tooltip = "CollectionsPattern:UnorderedTuple"
]

}

subgraph Identification {
label = "Identification"    

  node [ color = "#0000ff" ]

DDI4_AnnotatedIdentifiable [
  label = "{<id>DDI_AnnotatedIdentifiable}"

  tooltip = "Identification:AnnotatedIdentifiable"
]

}

DDI4_InstanceVariableMapping -> DDI4_AnnotatedIdentifiable [arrowhead=onormal color="#000000"];

  DDI4_InstanceVariableMapping:InstanceVariableMapping_maps_association -> DDI4_InstanceVariable [ arrowhead=diamond labeldistance=1.9 taillabel="0..n" headlabel="2..n" edgetooltip="maps" fontcolor="black" color="#00000"];

  DDI4_InstanceVariableMapping:InstanceVariableMapping_realizes_association -> DDI4_UnorderedTuple [ arrowhead=none  edgetooltip="realizes" fontcolor="black" color="#00000"];

}