digraph G {
fontname = "Bitstream Vera Sans"
fontsize = 8

overlap=false;

compound=true;    

node [
  fontname = "Bitstream Vera Sans"
  fontsize = 8
  shape = "record"
]

edge [
  fontname = "Bitstream Vera Sans"
  fontsize = 8
  mode="ipsep"            
]


DDI4_Map [
  label = "{<id>Map | + validDates : DateRange \l + type : CorrespondenceType \l + displayLabel : DisplayLabel \l + usage : StructuredString \l \l \l| <Map_source_association> source \l| <Map_target_association> target \l| <Map_realizes_association> realizes \l \l}"

  tooltip = "Representations:Map"
]

subgraph Representations {
label = "Representations"    

  node [ color = "#0000ff" ]

DDI4_Node [
  label = "{<id>DDI_Node}"

  tooltip = "Representations:Node"
]

}

subgraph CollectionsPattern {
label = "CollectionsPattern"    

  node [ color = "#0000ff" ]

DDI4_OrderedTuple [
  label = "{<id>DDI_OrderedTuple}"

  tooltip = "CollectionsPattern:OrderedTuple"
]

}

subgraph Identification {
label = "Identification"    

  node [ color = "#0000ff" ]

DDI4_AnnotatedIdentifiable [
  label = "{<id>DDI_AnnotatedIdentifiable}"

  tooltip = "Identification:AnnotatedIdentifiable"
]

}

DDI4_Map -> DDI4_AnnotatedIdentifiable [arrowhead=onormal color="#000000"];

  DDI4_Map:Map_source_association -> DDI4_Node [ arrowhead=diamond labeldistance=1.9 taillabel="0..n" headlabel="1..n" edgetooltip="source" fontcolor="black" color="#00000"];

  DDI4_Map:Map_target_association -> DDI4_Node [ arrowhead=diamond labeldistance=1.9 taillabel="0..n" headlabel="1..n" edgetooltip="target" fontcolor="black" color="#00000"];

  DDI4_Map:Map_realizes_association -> DDI4_OrderedTuple [ arrowhead=none  edgetooltip="realizes" fontcolor="black" color="#00000"];

}