digraph G {
fontname = "Bitstream Vera Sans"
fontsize = 8

overlap=false;

compound=true;    

node [
  fontname = "Bitstream Vera Sans"
  fontsize = 8
  shape = "record"
]

edge [
  fontname = "Bitstream Vera Sans"
  fontsize = 8
  mode="ipsep"            
]


DDI4_ValueAndConceptDescription [
  label = "{<id>ValueAndConceptDescription | + description : StructuredString \l + logicalExpression :  \l + regularExpression :  \l + minimumValueInclusive :  \l + maximumValueInclusive :  \l + minimumValueExclusive :  \l + maximumValueExclusive :  \l + classificationLevel : CategoryRelationCode \l \l \l| \l \l}"

  tooltip = "Representations:ValueAndConceptDescription"
]

DDI4_ValueAndConceptDescription -> DDI4_Identifier [arrowhead=onormal color="#000000"];

}