digraph G {
fontname = "Bitstream Vera Sans"
fontsize = 8

overlap=false;

compound=true;    

node [
  fontname = "Bitstream Vera Sans"
  fontsize = 8
  shape = "record"
]

edge [
  fontname = "Bitstream Vera Sans"
  fontsize = 8
  mode="ipsep"            
]


DDI4_CustomItemParentChildPair [
  label = "{<id>CustomItemParentChildPair | \l \l| <CustomItemParentChildPair_parent_association> parent \l| <CustomItemParentChildPair_child_association> child \l| <CustomItemParentChildPair_realizes_association> realizes \l \l}"

  tooltip = "CustomMetadata:CustomItemParentChildPair"
]

subgraph CustomMetadata {
label = "CustomMetadata"    

  node [ color = "#0000ff" ]

DDI4_CustomItem [
  label = "{<id>DDI_CustomItem}"

  tooltip = "CustomMetadata:CustomItem"
]

}

subgraph CollectionsPattern {
label = "CollectionsPattern"    

  node [ color = "#0000ff" ]

DDI4_OrderedPair [
  label = "{<id>DDI_OrderedPair}"

  tooltip = "CollectionsPattern:OrderedPair"
]

}

subgraph Identification {
label = "Identification"    

  node [ color = "#0000ff" ]

DDI4_Identifiable [
  label = "{<id>DDI_Identifiable}"

  tooltip = "Identification:Identifiable"
]

}

DDI4_CustomItemParentChildPair -> DDI4_Identifiable [arrowhead=onormal color="#000000"];

  DDI4_CustomItemParentChildPair:CustomItemParentChildPair_parent_association -> DDI4_CustomItem [ arrowhead=diamond labeldistance=1.9 taillabel="0..n" headlabel="1..1" edgetooltip="parent" fontcolor="black" color="#00000"];

  DDI4_CustomItemParentChildPair:CustomItemParentChildPair_child_association -> DDI4_CustomItem [ arrowhead=diamond labeldistance=1.9 taillabel="0..n" headlabel="1..1" edgetooltip="child" fontcolor="black" color="#00000"];

  DDI4_CustomItemParentChildPair:CustomItemParentChildPair_realizes_association -> DDI4_OrderedPair [ arrowhead=none  edgetooltip="realizes" fontcolor="black" color="#00000"];

}