digraph G {
fontname = "Bitstream Vera Sans"
fontsize = 8

overlap=false;

compound=true;    

node [
  fontname = "Bitstream Vera Sans"
  fontsize = 8
  shape = "record"
]

edge [
  fontname = "Bitstream Vera Sans"
  fontsize = 8
  mode="ipsep"            
]


DDI4_CustomValueParentChild [
  label = "{<id>CustomValueParentChild | + criteria : StructuredString \l + displayLabel : DisplayLabel \l + usage : StructuredString \l + semantics : ExternalControlledVocabularyEntry \l + reflexivity : ReflexivityType \l + symmetry : SymmetryType \l + transitivity : TransitivityType \l + totality : TotalityType \l \l \l| <CustomValueParentChild_contains_association> contains \l| <CustomValueParentChild_structures_association> structures \l| <CustomValueParentChild_realizes_association> realizes \l \l}"

  tooltip = "CustomMetadata:CustomValueParentChild"
]

subgraph CustomMetadata {
label = "CustomMetadata"    

  node [ color = "#0000ff" ]

DDI4_CustomInstance [
  label = "{<id>DDI_CustomInstance}"

  tooltip = "CustomMetadata:CustomInstance"
]

DDI4_CustomValueParentChildPair [
  label = "{<id>DDI_CustomValueParentChildPair}"

  tooltip = "CustomMetadata:CustomValueParentChildPair"
]

}

subgraph CollectionsPattern {
label = "CollectionsPattern"    

  node [ color = "#0000ff" ]

DDI4_ImmediatePrecedenceRelation [
  label = "{<id>DDI_ImmediatePrecedenceRelation}"

  tooltip = "CollectionsPattern:ImmediatePrecedenceRelation"
]

}

subgraph Identification {
label = "Identification"    

  node [ color = "#0000ff" ]

DDI4_AnnotatedIdentifiable [
  label = "{<id>DDI_AnnotatedIdentifiable}"

  tooltip = "Identification:AnnotatedIdentifiable"
]

}

DDI4_CustomValueParentChild -> DDI4_AnnotatedIdentifiable [arrowhead=onormal color="#000000"];

  DDI4_CustomValueParentChild:CustomValueParentChild_contains_association -> DDI4_CustomValueParentChildPair [ arrowhead=odiamond labeldistance=1.9 taillabel="0..n" headlabel="0..n" edgetooltip="contains" fontcolor="black" color="#00000"];

  DDI4_CustomValueParentChild:CustomValueParentChild_structures_association -> DDI4_CustomInstance [ arrowhead=diamond labeldistance=1.9 taillabel="0..n" headlabel="1..n" edgetooltip="structures" fontcolor="black" color="#00000"];

  DDI4_CustomValueParentChild:CustomValueParentChild_realizes_association -> DDI4_ImmediatePrecedenceRelation [ arrowhead=none  edgetooltip="realizes" fontcolor="black" color="#00000"];

}