digraph G {
fontname = "Bitstream Vera Sans"
fontsize = 8

overlap=false;

compound=true;    

node [
  fontname = "Bitstream Vera Sans"
  fontsize = 8
  shape = "record"
]

edge [
  fontname = "Bitstream Vera Sans"
  fontsize = 8
  mode="ipsep"            
]


DDI4_VocabularySequence [
  label = "{<id>VocabularySequence | + criteria : StructuredString \l + displayLabel : DisplayLabel \l + usage : StructuredString \l + semantics : ExternalControlledVocabularyEntry \l + reflexivity : ReflexivityType \l + symmetry : SymmetryType \l + transitivity : TransitivityType \l + totality : TotalityType \l \l \l| <VocabularySequence_contains_association> contains \l| <VocabularySequence_structures_association> structures \l| <VocabularySequence_realizes_association> realizes \l \l}"

  tooltip = "CustomMetadata:VocabularySequence"
]

subgraph CustomMetadata {
label = "CustomMetadata"    

  node [ color = "#0000ff" ]

DDI4_ControlledVocabulary [
  label = "{<id>DDI_ControlledVocabulary}"

  tooltip = "CustomMetadata:ControlledVocabulary"
]

DDI4_VocabularySequencePair [
  label = "{<id>DDI_VocabularySequencePair}"

  tooltip = "CustomMetadata:VocabularySequencePair"
]

}

subgraph CollectionsPattern {
label = "CollectionsPattern"    

  node [ color = "#0000ff" ]

DDI4_OrderRelation [
  label = "{<id>DDI_OrderRelation}"

  tooltip = "CollectionsPattern:OrderRelation"
]

}

subgraph Identification {
label = "Identification"    

  node [ color = "#0000ff" ]

DDI4_AnnotatedIdentifiable [
  label = "{<id>DDI_AnnotatedIdentifiable}"

  tooltip = "Identification:AnnotatedIdentifiable"
]

}

DDI4_VocabularySequence -> DDI4_AnnotatedIdentifiable [arrowhead=onormal color="#000000"];

  DDI4_VocabularySequence:VocabularySequence_contains_association -> DDI4_VocabularySequencePair [ arrowhead=odiamond labeldistance=1.9 taillabel="0..n" headlabel="0..n" edgetooltip="contains" fontcolor="black" color="#00000"];

  DDI4_VocabularySequence:VocabularySequence_structures_association -> DDI4_ControlledVocabulary [ arrowhead=diamond labeldistance=1.9 taillabel="0..n" headlabel="1..n" edgetooltip="structures" fontcolor="black" color="#00000"];

  DDI4_VocabularySequence:VocabularySequence_realizes_association -> DDI4_OrderRelation [ arrowhead=none  edgetooltip="realizes" fontcolor="black" color="#00000"];

}