digraph G {
fontname = "Bitstream Vera Sans"
fontsize = 8

overlap=false;

compound=true;    

node [
  fontname = "Bitstream Vera Sans"
  fontsize = 8
  shape = "record"
]

edge [
  fontname = "Bitstream Vera Sans"
  fontsize = 8
  mode="ipsep"            
]


DDI4_VocabularyParentChildPair [
  label = "{<id>VocabularyParentChildPair | \l \l| <VocabularyParentChildPair_parent_association> parent \l| <VocabularyParentChildPair_child_association> child \l| <VocabularyParentChildPair_realizes_association> realizes \l \l}"

  tooltip = "CustomMetadata:VocabularyParentChildPair"
]

subgraph CustomMetadata {
label = "CustomMetadata"    

  node [ color = "#0000ff" ]

DDI4_VocabularyEntry [
  label = "{<id>DDI_VocabularyEntry}"

  tooltip = "CustomMetadata:VocabularyEntry"
]

}

subgraph CollectionsPattern {
label = "CollectionsPattern"    

  node [ color = "#0000ff" ]

DDI4_OrderedPair [
  label = "{<id>DDI_OrderedPair}"

  tooltip = "CollectionsPattern:OrderedPair"
]

}

subgraph Identification {
label = "Identification"    

  node [ color = "#0000ff" ]

DDI4_Identifiable [
  label = "{<id>DDI_Identifiable}"

  tooltip = "Identification:Identifiable"
]

}

DDI4_VocabularyParentChildPair -> DDI4_Identifiable [arrowhead=onormal color="#000000"];

  DDI4_VocabularyParentChildPair:VocabularyParentChildPair_parent_association -> DDI4_VocabularyEntry [ arrowhead=diamond labeldistance=1.9 taillabel="0..n" headlabel="1..1" edgetooltip="parent" fontcolor="black" color="#00000"];

  DDI4_VocabularyParentChildPair:VocabularyParentChildPair_child_association -> DDI4_VocabularyEntry [ arrowhead=diamond labeldistance=1.9 taillabel="0..n" headlabel="1..1" edgetooltip="child" fontcolor="black" color="#00000"];

  DDI4_VocabularyParentChildPair:VocabularyParentChildPair_realizes_association -> DDI4_OrderedPair [ arrowhead=none  edgetooltip="realizes" fontcolor="black" color="#00000"];

}