digraph G {
fontname = "Bitstream Vera Sans"
fontsize = 8

overlap=false;

compound=true;    

node [
  fontname = "Bitstream Vera Sans"
  fontsize = 8
  shape = "record"
]

edge [
  fontname = "Bitstream Vera Sans"
  fontsize = 8
  mode="ipsep"            
]


DDI4_ContainsIntervalRelation [
  label = "{<id>ContainsIntervalRelation | + reflexivity : ReflexivityType \l + symmetry : SymmetryType \l + transitivity : TransitivityType \l + semantics : ExternalControlledVocabularyEntry \l + usage : StructuredString \l \l \l| <ContainsIntervalRelation_realizes_association> realizes \l| <ContainsIntervalRelation_contains_association> contains \l| <ContainsIntervalRelation_structures_association> structures \l \l}"

  tooltip = "ComplexProcess:ContainsIntervalRelation"
]

DDI4_EqualsIntervalRelation [
  label = "{<id>EqualsIntervalRelation | + reflexivity : ReflexivityType \l + symmetry : SymmetryType \l + transitivity : TransitivityType \l + semantics : ExternalControlledVocabularyEntry \l \l \l| <EqualsIntervalRelation_realizes_association> realizes \l| <EqualsIntervalRelation_contains_association> contains \l| <EqualsIntervalRelation_structures_association> structures \l \l}"

  tooltip = "ComplexProcess:EqualsIntervalRelation"
]

DDI4_ExecutionPair [
  label = "{<id>ExecutionPair | + executionPairPattern : ExternalControlledVocabularyEntry \l \l \l| <ExecutionPair_realizes_association> realizes \l| <ExecutionPair_hasBinding_association> hasBinding \l \l}"

  tooltip = "ComplexProcess:ExecutionPair"
]

DDI4_FinishesIntervalRelation [
  label = "{<id>FinishesIntervalRelation | + reflexivity : ReflexivityType \l + symmetry : SymmetryType \l + transitivity : TransitivityType \l + semantics : ExternalControlledVocabularyEntry \l + usage : StructuredString \l \l \l| <FinishesIntervalRelation_realizes_association> realizes \l| <FinishesIntervalRelation_contains_association> contains \l| <FinishesIntervalRelation_structures_association> structures \l \l}"

  tooltip = "ComplexProcess:FinishesIntervalRelation"
]

DDI4_MeetsIntervalRelation [
  label = "{<id>MeetsIntervalRelation | + reflexivity : ReflexivityType \l + symmetry : SymmetryType \l + transitivity : TransitivityType \l + semantics : ExternalControlledVocabularyEntry \l \l \l| <MeetsIntervalRelation_realizes_association> realizes \l| <MeetsIntervalRelation_contains_association> contains \l| <MeetsIntervalRelation_structures_association> structures \l \l}"

  tooltip = "ComplexProcess:MeetsIntervalRelation"
]

DDI4_OrderedIntervalPair [
  label = "{<id>OrderedIntervalPair | \l \l| <OrderedIntervalPair_source_association> source \l| <OrderedIntervalPair_target_association> target \l| <OrderedIntervalPair_realizes_association> realizes \l \l}"

  tooltip = "ComplexProcess:OrderedIntervalPair"
]

DDI4_OverlapsIntervalRelation [
  label = "{<id>OverlapsIntervalRelation | + reflexivity : ReflexivityType \l + symmetry : SymmetryType \l + transitivity : TransitivityType \l + semantics : ExternalControlledVocabularyEntry \l + displayLabel : DisplayLabel \l + usage : StructuredString \l \l \l| <OverlapsIntervalRelation_realizes_association> realizes \l| <OverlapsIntervalRelation_contains_association> contains \l| <OverlapsIntervalRelation_structures_association> structures \l \l}"

  tooltip = "ComplexProcess:OverlapsIntervalRelation"
]

DDI4_PrecedesIntervalRelation [
  label = "{<id>PrecedesIntervalRelation | + reflexivity : ReflexivityType \l + symmetry : SymmetryType \l + transitivity : TransitivityType \l + semantics : ExternalControlledVocabularyEntry \l + usage : StructuredString \l \l \l| <PrecedesIntervalRelation_realizes_association> realizes \l| <PrecedesIntervalRelation_contains_association> contains \l| <PrecedesIntervalRelation_structures_association> structures \l \l}"

  tooltip = "ComplexProcess:PrecedesIntervalRelation"
]

DDI4_Split [
  label = "{<id>Split | \l \l| \l \l}"

  tooltip = "ComplexProcess:Split"
]

DDI4_SplitJoin [
  label = "{<id>SplitJoin | \l \l| \l \l}"

  tooltip = "ComplexProcess:SplitJoin"
]

DDI4_StartsIntervalRelation [
  label = "{<id>StartsIntervalRelation | + reflexivity : ReflexivityType \l + symmetry : SymmetryType \l + transitivity : TransitivityType \l + semantics : ExternalControlledVocabularyEntry \l + usage : StructuredString \l \l \l| <StartsIntervalRelation_realizes_association> realizes \l| <StartsIntervalRelation_contains_association> contains \l| <StartsIntervalRelation_structures_association> structures \l \l}"

  tooltip = "ComplexProcess:StartsIntervalRelation"
]

DDI4_StudyUnitControl [
  label = "{<id>StudyUnitControl | + hasStudyUnit : Annotation \l \l \l| \l \l}"

  tooltip = "ComplexProcess:StudyUnitControl"
]

DDI4_TemporalIntervalRelation [
  label = "{<id>TemporalIntervalRelation | + totality : TotalityType \l \l \l| \l \l}"

  tooltip = "ComplexProcess:TemporalIntervalRelation"
]

DDI4_TransformationControl [
  label = "{<id>TransformationControl | + activityDescription : StructuredString \l \l \l| <TransformationControl_wasDerivedFrom_association> wasDerivedFrom \l| <TransformationControl_wasAssociatedWith_association> wasAssociatedWith \l| <TransformationControl_wasGeneratedBy_association> wasGeneratedBy \l \l}"

  tooltip = "ComplexProcess:TransformationControl"
]

DDI4_UnorderedIntervalPair [
  label = "{<id>UnorderedIntervalPair | \l \l| <UnorderedIntervalPair_maps_association> maps \l| <UnorderedIntervalPair_realizes_association> realizes \l \l}"

  tooltip = "ComplexProcess:UnorderedIntervalPair"
]

subgraph Workflows {
label = "Workflows"    

  node [ color = "#0000ff" ]

DDI4_Act [
  label = "{<id>DDI_Act}"

  tooltip = "Workflows:Act"
]

DDI4_Binding [
  label = "{<id>DDI_Binding}"

  tooltip = "Workflows:Binding"
]

DDI4_ControlConstruct [
  label = "{<id>DDI_ControlConstruct}"

  tooltip = "Workflows:ControlConstruct"
]

DDI4_WorkflowSequence [
  label = "{<id>DDI_WorkflowSequence}"

  tooltip = "Workflows:WorkflowSequence"
]

DDI4_WorkflowStep [
  label = "{<id>DDI_WorkflowStep}"

  tooltip = "Workflows:WorkflowStep"
]

}

subgraph CollectionsPattern {
label = "CollectionsPattern"    

  node [ color = "#0000ff" ]

DDI4_AcyclicPrecedenceRelation [
  label = "{<id>DDI_AcyclicPrecedenceRelation}"

  tooltip = "CollectionsPattern:AcyclicPrecedenceRelation"
]

DDI4_EquivalenceRelation [
  label = "{<id>DDI_EquivalenceRelation}"

  tooltip = "CollectionsPattern:EquivalenceRelation"
]

DDI4_ImmediatePrecedenceRelation [
  label = "{<id>DDI_ImmediatePrecedenceRelation}"

  tooltip = "CollectionsPattern:ImmediatePrecedenceRelation"
]

DDI4_OrderedPair [
  label = "{<id>DDI_OrderedPair}"

  tooltip = "CollectionsPattern:OrderedPair"
]

DDI4_StrictOrderRelation [
  label = "{<id>DDI_StrictOrderRelation}"

  tooltip = "CollectionsPattern:StrictOrderRelation"
]

DDI4_UnorderedPair [
  label = "{<id>DDI_UnorderedPair}"

  tooltip = "CollectionsPattern:UnorderedPair"
]

}

subgraph Agents {
label = "Agents"    

  node [ color = "#0000ff" ]

DDI4_Agent [
  label = "{<id>DDI_Agent}"

  tooltip = "Agents:Agent"
]

}

subgraph Identification {
label = "Identification"    

  node [ color = "#0000ff" ]

DDI4_AnnotatedIdentifiable [
  label = "{<id>DDI_AnnotatedIdentifiable}"

  tooltip = "Identification:AnnotatedIdentifiable"
]

DDI4_Identifiable [
  label = "{<id>DDI_Identifiable}"

  tooltip = "Identification:Identifiable"
]

}

DDI4_ContainsIntervalRelation -> DDI4_TemporalIntervalRelation [arrowhead=onormal color="#000000"];

  DDI4_ContainsIntervalRelation:ContainsIntervalRelation_realizes_association -> DDI4_StrictOrderRelation [ arrowhead=none  edgetooltip="realizes" fontcolor="black" color="#00000"];

  DDI4_ContainsIntervalRelation:ContainsIntervalRelation_contains_association -> DDI4_OrderedIntervalPair [ arrowhead=odiamond labeldistance=1.9 taillabel="0..n" headlabel="0..n" edgetooltip="contains" fontcolor="black" color="#00000"];

  DDI4_ContainsIntervalRelation:ContainsIntervalRelation_structures_association -> DDI4_WorkflowSequence [ arrowhead=diamond labeldistance=1.9 taillabel="0..n" headlabel="1..n" edgetooltip="structures" fontcolor="black" color="#00000"];

DDI4_EqualsIntervalRelation -> DDI4_TemporalIntervalRelation [arrowhead=onormal color="#000000"];

  DDI4_EqualsIntervalRelation:EqualsIntervalRelation_realizes_association -> DDI4_EquivalenceRelation [ arrowhead=none  edgetooltip="realizes" fontcolor="black" color="#00000"];

  DDI4_EqualsIntervalRelation:EqualsIntervalRelation_contains_association -> DDI4_UnorderedIntervalPair [ arrowhead=odiamond labeldistance=1.9 taillabel="0..n" headlabel="0..n" edgetooltip="contains" fontcolor="black" color="#00000"];

  DDI4_EqualsIntervalRelation:EqualsIntervalRelation_structures_association -> DDI4_WorkflowSequence [ arrowhead=diamond labeldistance=1.9 taillabel="0..n" headlabel="1..n" edgetooltip="structures" fontcolor="black" color="#00000"];

DDI4_ExecutionPair -> DDI4_AnnotatedIdentifiable [arrowhead=onormal color="#000000"];

  DDI4_ExecutionPair:ExecutionPair_realizes_association -> DDI4_OrderedPair [ arrowhead=none  edgetooltip="realizes" fontcolor="black" color="#00000"];

  DDI4_ExecutionPair:ExecutionPair_hasBinding_association -> DDI4_Binding [ arrowhead=odiamond labeldistance=1.9 taillabel="0..n" headlabel="0..1" edgetooltip="hasBinding" fontcolor="black" color="#00000"];

DDI4_FinishesIntervalRelation -> DDI4_TemporalIntervalRelation [arrowhead=onormal color="#000000"];

  DDI4_FinishesIntervalRelation:FinishesIntervalRelation_realizes_association -> DDI4_StrictOrderRelation [ arrowhead=none  edgetooltip="realizes" fontcolor="black" color="#00000"];

  DDI4_FinishesIntervalRelation:FinishesIntervalRelation_contains_association -> DDI4_OrderedIntervalPair [ arrowhead=odiamond labeldistance=1.9 taillabel="0..n" headlabel="0..n" edgetooltip="contains" fontcolor="black" color="#00000"];

  DDI4_FinishesIntervalRelation:FinishesIntervalRelation_structures_association -> DDI4_WorkflowSequence [ arrowhead=diamond labeldistance=1.9 taillabel="0..n" headlabel="1..n" edgetooltip="structures" fontcolor="black" color="#00000"];

DDI4_MeetsIntervalRelation -> DDI4_TemporalIntervalRelation [arrowhead=onormal color="#000000"];

  DDI4_MeetsIntervalRelation:MeetsIntervalRelation_realizes_association -> DDI4_ImmediatePrecedenceRelation [ arrowhead=none  edgetooltip="realizes" fontcolor="black" color="#00000"];

  DDI4_MeetsIntervalRelation:MeetsIntervalRelation_contains_association -> DDI4_OrderedIntervalPair [ arrowhead=odiamond labeldistance=1.9 taillabel="0..n" headlabel="0..n" edgetooltip="contains" fontcolor="black" color="#00000"];

  DDI4_MeetsIntervalRelation:MeetsIntervalRelation_structures_association -> DDI4_WorkflowSequence [ arrowhead=diamond labeldistance=1.9 taillabel="0..n" headlabel="1..n" edgetooltip="structures" fontcolor="black" color="#00000"];

DDI4_OrderedIntervalPair -> DDI4_Identifiable [arrowhead=onormal color="#000000"];

  DDI4_OrderedIntervalPair:OrderedIntervalPair_source_association -> DDI4_WorkflowStep [ arrowhead=diamond labeldistance=1.9 taillabel="0..n" headlabel="1..1" edgetooltip="source" fontcolor="black" color="#00000"];

  DDI4_OrderedIntervalPair:OrderedIntervalPair_target_association -> DDI4_WorkflowStep [ arrowhead=diamond labeldistance=1.9 taillabel="0..n" headlabel="1..1" edgetooltip="target" fontcolor="black" color="#00000"];

  DDI4_OrderedIntervalPair:OrderedIntervalPair_realizes_association -> DDI4_OrderedPair [ arrowhead=none  edgetooltip="realizes" fontcolor="black" color="#00000"];

DDI4_OverlapsIntervalRelation -> DDI4_TemporalIntervalRelation [arrowhead=onormal color="#000000"];

  DDI4_OverlapsIntervalRelation:OverlapsIntervalRelation_realizes_association -> DDI4_AcyclicPrecedenceRelation [ arrowhead=none  edgetooltip="realizes" fontcolor="black" color="#00000"];

  DDI4_OverlapsIntervalRelation:OverlapsIntervalRelation_contains_association -> DDI4_OrderedIntervalPair [ arrowhead=odiamond labeldistance=1.9 taillabel="0..n" headlabel="0..n" edgetooltip="contains" fontcolor="black" color="#00000"];

  DDI4_OverlapsIntervalRelation:OverlapsIntervalRelation_structures_association -> DDI4_WorkflowSequence [ arrowhead=diamond labeldistance=1.9 taillabel="0..n" headlabel="1..n" edgetooltip="structures" fontcolor="black" color="#00000"];

DDI4_PrecedesIntervalRelation -> DDI4_TemporalIntervalRelation [arrowhead=onormal color="#000000"];

  DDI4_PrecedesIntervalRelation:PrecedesIntervalRelation_realizes_association -> DDI4_StrictOrderRelation [ arrowhead=none  edgetooltip="realizes" fontcolor="black" color="#00000"];

  DDI4_PrecedesIntervalRelation:PrecedesIntervalRelation_contains_association -> DDI4_OrderedIntervalPair [ arrowhead=odiamond labeldistance=1.9 taillabel="0..n" headlabel="0..n" edgetooltip="contains" fontcolor="black" color="#00000"];

  DDI4_PrecedesIntervalRelation:PrecedesIntervalRelation_structures_association -> DDI4_WorkflowSequence [ arrowhead=diamond labeldistance=1.9 taillabel="0..n" headlabel="1..n" edgetooltip="structures" fontcolor="black" color="#00000"];

DDI4_Split -> DDI4_ControlConstruct [arrowhead=onormal color="#000000"];

DDI4_SplitJoin -> DDI4_ControlConstruct [arrowhead=onormal color="#000000"];

DDI4_StartsIntervalRelation -> DDI4_TemporalIntervalRelation [arrowhead=onormal color="#000000"];

  DDI4_StartsIntervalRelation:StartsIntervalRelation_realizes_association -> DDI4_StrictOrderRelation [ arrowhead=none  edgetooltip="realizes" fontcolor="black" color="#00000"];

  DDI4_StartsIntervalRelation:StartsIntervalRelation_contains_association -> DDI4_OrderedIntervalPair [ arrowhead=odiamond labeldistance=1.9 taillabel="0..n" headlabel="0..n" edgetooltip="contains" fontcolor="black" color="#00000"];

  DDI4_StartsIntervalRelation:StartsIntervalRelation_structures_association -> DDI4_WorkflowSequence [ arrowhead=diamond labeldistance=1.9 taillabel="0..n" headlabel="1..n" edgetooltip="structures" fontcolor="black" color="#00000"];

DDI4_StudyUnitControl -> DDI4_Act [arrowhead=onormal color="#000000"];

DDI4_TemporalIntervalRelation -> DDI4_AnnotatedIdentifiable [arrowhead=onormal color="#000000"];

DDI4_TransformationControl -> DDI4_Act [arrowhead=onormal color="#000000"];

  DDI4_TransformationControl:TransformationControl_wasDerivedFrom_association -> DDI4_WorkflowStep [ arrowhead=odiamond labeldistance=1.9 taillabel="0..n" headlabel="0..1" edgetooltip="wasDerivedFrom" fontcolor="black" color="#00000"];

  DDI4_TransformationControl:TransformationControl_wasAssociatedWith_association -> DDI4_Agent [ arrowhead=odiamond labeldistance=1.9 taillabel="0..n" headlabel="0..n" edgetooltip="wasAssociatedWith" fontcolor="black" color="#00000"];

  DDI4_TransformationControl:TransformationControl_wasGeneratedBy_association -> DDI4_WorkflowStep [ arrowhead=odiamond labeldistance=1.9 taillabel="0..n" headlabel="0..n" edgetooltip="wasGeneratedBy" fontcolor="black" color="#00000"];

DDI4_UnorderedIntervalPair -> DDI4_Identifiable [arrowhead=onormal color="#000000"];

  DDI4_UnorderedIntervalPair:UnorderedIntervalPair_maps_association -> DDI4_WorkflowStep [ arrowhead=odiamond labeldistance=1.9 taillabel="0..n" headlabel="0..n" edgetooltip="maps" fontcolor="black" color="#00000"];

  DDI4_UnorderedIntervalPair:UnorderedIntervalPair_realizes_association -> DDI4_UnorderedPair [ arrowhead=none  edgetooltip="realizes" fontcolor="black" color="#00000"];

}