digraph G {
fontname = "Bitstream Vera Sans"
fontsize = 8

overlap=false;

compound=true;    

node [
  fontname = "Bitstream Vera Sans"
  fontsize = 8
  shape = "record"
]

edge [
  fontname = "Bitstream Vera Sans"
  fontsize = 8
  mode="ipsep"            
]


DDI4_FinishesIntervalRelation [
  label = "{<id>FinishesIntervalRelation | + reflexivity : ReflexivityType \l + symmetry : SymmetryType \l + transitivity : TransitivityType \l + semantics : ExternalControlledVocabularyEntry \l + usage : StructuredString \l \l \l| <FinishesIntervalRelation_realizes_association> realizes \l| <FinishesIntervalRelation_contains_association> contains \l| <FinishesIntervalRelation_structures_association> structures \l \l}"

  tooltip = "ComplexProcess:FinishesIntervalRelation"
]

subgraph Workflows {
label = "Workflows"    

  node [ color = "#0000ff" ]

DDI4_WorkflowSequence [
  label = "{<id>DDI_WorkflowSequence}"

  tooltip = "Workflows:WorkflowSequence"
]

}

subgraph CollectionsPattern {
label = "CollectionsPattern"    

  node [ color = "#0000ff" ]

DDI4_StrictOrderRelation [
  label = "{<id>DDI_StrictOrderRelation}"

  tooltip = "CollectionsPattern:StrictOrderRelation"
]

}

subgraph ComplexProcess {
label = "ComplexProcess"    

  node [ color = "#0000ff" ]

DDI4_OrderedIntervalPair [
  label = "{<id>DDI_OrderedIntervalPair}"

  tooltip = "ComplexProcess:OrderedIntervalPair"
]

DDI4_TemporalIntervalRelation [
  label = "{<id>DDI_TemporalIntervalRelation}"

  tooltip = "ComplexProcess:TemporalIntervalRelation"
]

}

DDI4_FinishesIntervalRelation -> DDI4_TemporalIntervalRelation [arrowhead=onormal color="#000000"];

  DDI4_FinishesIntervalRelation:FinishesIntervalRelation_realizes_association -> DDI4_StrictOrderRelation [ arrowhead=none  edgetooltip="realizes" fontcolor="black" color="#00000"];

  DDI4_FinishesIntervalRelation:FinishesIntervalRelation_contains_association -> DDI4_OrderedIntervalPair [ arrowhead=odiamond labeldistance=1.9 taillabel="0..n" headlabel="0..n" edgetooltip="contains" fontcolor="black" color="#00000"];

  DDI4_FinishesIntervalRelation:FinishesIntervalRelation_structures_association -> DDI4_WorkflowSequence [ arrowhead=diamond labeldistance=1.9 taillabel="0..n" headlabel="1..n" edgetooltip="structures" fontcolor="black" color="#00000"];

}