digraph G {
fontname = "Bitstream Vera Sans"
fontsize = 8

overlap=false;

compound=true;    

node [
  fontname = "Bitstream Vera Sans"
  fontsize = 8
  shape = "record"
]

edge [
  fontname = "Bitstream Vera Sans"
  fontsize = 8
  mode="ipsep"            
]


DDI4_OverlapsIntervalRelation [
  label = "{<id>OverlapsIntervalRelation | + reflexivity : ReflexivityType \l + symmetry : SymmetryType \l + transitivity : TransitivityType \l + semantics : ExternalControlledVocabularyEntry \l + displayLabel : DisplayLabel \l + usage : StructuredString \l \l \l| <OverlapsIntervalRelation_realizes_association> realizes \l| <OverlapsIntervalRelation_contains_association> contains \l| <OverlapsIntervalRelation_structures_association> structures \l \l}"

  tooltip = "ComplexProcess:OverlapsIntervalRelation"
]

subgraph Workflows {
label = "Workflows"    

  node [ color = "#0000ff" ]

DDI4_WorkflowSequence [
  label = "{<id>DDI_WorkflowSequence}"

  tooltip = "Workflows:WorkflowSequence"
]

}

subgraph CollectionsPattern {
label = "CollectionsPattern"    

  node [ color = "#0000ff" ]

DDI4_AcyclicPrecedenceRelation [
  label = "{<id>DDI_AcyclicPrecedenceRelation}"

  tooltip = "CollectionsPattern:AcyclicPrecedenceRelation"
]

}

subgraph ComplexProcess {
label = "ComplexProcess"    

  node [ color = "#0000ff" ]

DDI4_OrderedIntervalPair [
  label = "{<id>DDI_OrderedIntervalPair}"

  tooltip = "ComplexProcess:OrderedIntervalPair"
]

DDI4_TemporalIntervalRelation [
  label = "{<id>DDI_TemporalIntervalRelation}"

  tooltip = "ComplexProcess:TemporalIntervalRelation"
]

}

DDI4_OverlapsIntervalRelation -> DDI4_TemporalIntervalRelation [arrowhead=onormal color="#000000"];

  DDI4_OverlapsIntervalRelation:OverlapsIntervalRelation_realizes_association -> DDI4_AcyclicPrecedenceRelation [ arrowhead=none  edgetooltip="realizes" fontcolor="black" color="#00000"];

  DDI4_OverlapsIntervalRelation:OverlapsIntervalRelation_contains_association -> DDI4_OrderedIntervalPair [ arrowhead=odiamond labeldistance=1.9 taillabel="0..n" headlabel="0..n" edgetooltip="contains" fontcolor="black" color="#00000"];

  DDI4_OverlapsIntervalRelation:OverlapsIntervalRelation_structures_association -> DDI4_WorkflowSequence [ arrowhead=diamond labeldistance=1.9 taillabel="0..n" headlabel="1..n" edgetooltip="structures" fontcolor="black" color="#00000"];

}