digraph G {
fontname = "Bitstream Vera Sans"
fontsize = 8

overlap=false;

compound=true;    

node [
  fontname = "Bitstream Vera Sans"
  fontsize = 8
  shape = "record"
]

edge [
  fontname = "Bitstream Vera Sans"
  fontsize = 8
  mode="ipsep"            
]


DDI4_TemporalIntervalRelation [
  label = "{<id>TemporalIntervalRelation | + totality : TotalityType \l \l \l| \l \l}"

  tooltip = "ComplexProcess:TemporalIntervalRelation"
]

subgraph Identification {
label = "Identification"    

  node [ color = "#0000ff" ]

DDI4_AnnotatedIdentifiable [
  label = "{<id>DDI_AnnotatedIdentifiable}"

  tooltip = "Identification:AnnotatedIdentifiable"
]

}

DDI4_TemporalIntervalRelation -> DDI4_AnnotatedIdentifiable [arrowhead=onormal color="#000000"];

}