digraph G {
fontname = "Bitstream Vera Sans"
fontsize = 8

overlap=false;

compound=true;    

node [
  fontname = "Bitstream Vera Sans"
  fontsize = 8
  shape = "record"
]

edge [
  fontname = "Bitstream Vera Sans"
  fontsize = 8
  mode="ipsep"            
]


DDI4_EventLayout [
  label = "{<id>EventLayout | \l \l| \l \l}"

  tooltip = "FormatDescription:EventLayout"
]

subgraph FormatDescription {
label = "FormatDescription"    

  node [ color = "#0000ff" ]

DDI4_PhysicalLayout [
  label = "{<id>DDI_PhysicalLayout}"

  tooltip = "FormatDescription:PhysicalLayout"
]

}

DDI4_EventLayout -> DDI4_PhysicalLayout [arrowhead=onormal color="#000000"];

}