digraph G {
fontname = "Bitstream Vera Sans"
fontsize = 8

overlap=false;

compound=true;    

node [
  fontname = "Bitstream Vera Sans"
  fontsize = 8
  shape = "record"
]

edge [
  fontname = "Bitstream Vera Sans"
  fontsize = 8
  mode="ipsep"            
]


DDI4_PhysicalLayoutOrderedPair [
  label = "{<id>PhysicalLayoutOrderedPair | \l \l| <PhysicalLayoutOrderedPair_realizes_association> realizes \l| <PhysicalLayoutOrderedPair_source_association> source \l| <PhysicalLayoutOrderedPair_target_association> target \l \l}"

  tooltip = "FormatDescription:PhysicalLayoutOrderedPair"
]

subgraph FormatDescription {
label = "FormatDescription"    

  node [ color = "#0000ff" ]

DDI4_ValueMapping [
  label = "{<id>DDI_ValueMapping}"

  tooltip = "FormatDescription:ValueMapping"
]

}

subgraph CollectionsPattern {
label = "CollectionsPattern"    

  node [ color = "#0000ff" ]

DDI4_OrderedPair [
  label = "{<id>DDI_OrderedPair}"

  tooltip = "CollectionsPattern:OrderedPair"
]

}

subgraph Identification {
label = "Identification"    

  node [ color = "#0000ff" ]

DDI4_Identifiable [
  label = "{<id>DDI_Identifiable}"

  tooltip = "Identification:Identifiable"
]

}

DDI4_PhysicalLayoutOrderedPair -> DDI4_Identifiable [arrowhead=onormal color="#000000"];

  DDI4_PhysicalLayoutOrderedPair:PhysicalLayoutOrderedPair_realizes_association -> DDI4_OrderedPair [ arrowhead=none  edgetooltip="realizes" fontcolor="black" color="#00000"];

  DDI4_PhysicalLayoutOrderedPair:PhysicalLayoutOrderedPair_source_association -> DDI4_ValueMapping [ arrowhead=diamond labeldistance=1.9 taillabel="0..n" headlabel="1..1" edgetooltip="source" fontcolor="black" color="#00000"];

  DDI4_PhysicalLayoutOrderedPair:PhysicalLayoutOrderedPair_target_association -> DDI4_ValueMapping [ arrowhead=diamond labeldistance=1.9 taillabel="0..n" headlabel="1..1" edgetooltip="target" fontcolor="black" color="#00000"];

}