digraph G {
fontname = "Bitstream Vera Sans"
fontsize = 8

overlap=false;

compound=true;    

node [
  fontname = "Bitstream Vera Sans"
  fontsize = 8
  shape = "record"
]

edge [
  fontname = "Bitstream Vera Sans"
  fontsize = 8
  mode="ipsep"            
]


DDI4_StructureDescription [
  label = "{<id>StructureDescription | + overview : StructuredString \l \l \l| <StructureDescription_containsPhysicalLayout_association> containsPhysicalLayout \l| <StructureDescription_formatsDataStore_association> formatsDataStore \l \l}"

  tooltip = "FormatDescription:StructureDescription"
]

subgraph FormatDescription {
label = "FormatDescription"    

  node [ color = "#0000ff" ]

DDI4_PhysicalLayout [
  label = "{<id>DDI_PhysicalLayout}"

  tooltip = "FormatDescription:PhysicalLayout"
]

}

subgraph LogicalDataDescription {
label = "LogicalDataDescription"    

  node [ color = "#0000ff" ]

DDI4_DataStore [
  label = "{<id>DDI_DataStore}"

  tooltip = "LogicalDataDescription:DataStore"
]

}

subgraph Identification {
label = "Identification"    

  node [ color = "#0000ff" ]

DDI4_AnnotatedIdentifiable [
  label = "{<id>DDI_AnnotatedIdentifiable}"

  tooltip = "Identification:AnnotatedIdentifiable"
]

}

DDI4_StructureDescription -> DDI4_AnnotatedIdentifiable [arrowhead=onormal color="#000000"];

  DDI4_StructureDescription:StructureDescription_containsPhysicalLayout_association -> DDI4_PhysicalLayout [ arrowhead=odiamond labeldistance=1.9 taillabel="0..n" headlabel="0..n" edgetooltip="containsPhysicalLayout" fontcolor="black" color="#00000"];

  DDI4_StructureDescription:StructureDescription_formatsDataStore_association -> DDI4_DataStore [ arrowhead=odiamond labeldistance=1.9 taillabel="0..n" headlabel="0..1" edgetooltip="formatsDataStore" fontcolor="black" color="#00000"];

}