digraph G {
fontname = "Bitstream Vera Sans"
fontsize = 8

overlap=false;

compound=true;    

node [
  fontname = "Bitstream Vera Sans"
  fontsize = 8
  shape = "record"
]

edge [
  fontname = "Bitstream Vera Sans"
  fontsize = 8
  mode="ipsep"            
]


DDI4_Service [
  label = "{<id>Service | + interface : ExternalControlledVocabularyEntry \l + location : ExternalControlledVocabularyEntry \l \l \l| <Service_hasAgent_association> hasAgent \l \l}"

  tooltip = "ProcessPattern:Service"
]

subgraph Agents {
label = "Agents"    

  node [ color = "#0000ff" ]

DDI4_Agent [
  label = "{<id>DDI_Agent}"

  tooltip = "Agents:Agent"
]

}

subgraph Identification {
label = "Identification"    

  node [ color = "#0000ff" ]

DDI4_Identifiable [
  label = "{<id>DDI_Identifiable}"

  tooltip = "Identification:Identifiable"
]

}

DDI4_Service -> DDI4_Identifiable [arrowhead=onormal color="#000000"];

  DDI4_Service:Service_hasAgent_association -> DDI4_Agent [ arrowhead=odiamond labeldistance=1.9 taillabel="0..n" headlabel="0..n" edgetooltip="hasAgent" fontcolor="black" color="#00000"];

}