digraph G {
fontname = "Bitstream Vera Sans"
fontsize = 8

overlap=false;

compound=true;    

node [
  fontname = "Bitstream Vera Sans"
  fontsize = 8
  shape = "record"
]

edge [
  fontname = "Bitstream Vera Sans"
  fontsize = 8
  mode="ipsep"            
]


DDI4_AccessLocation [
  label = "{<id>AccessLocation | + externalURLReference : URL \l + internalURLReference :  \l + mimeType : ExternalControlledVocabularyEntry \l + physicalLocation : InternationalString \l \l \l| \l \l}"

  tooltip = "ComplexDataTypes:AccessLocation"
]

DDI4_AccessLocation -> DDI4_ [arrowhead=onormal color="#000000"];

}