digraph G {
fontname = "Bitstream Vera Sans"
fontsize = 8

overlap=false;

compound=true;    

node [
  fontname = "Bitstream Vera Sans"
  fontsize = 8
  shape = "record"
]

edge [
  fontname = "Bitstream Vera Sans"
  fontsize = 8
  mode="ipsep"            
]


DDI4_BasedOnObject [
  label = "{<id>BasedOnObject | + basedOnRationaleDescription : InternationalString \l + basedOnRationaleCode : ExternalControlledVocabularyEntry \l \l \l| <BasedOnObject_basedOn_association> basedOn \l \l}"

  tooltip = "ComplexDataTypes:BasedOnObject"
]

subgraph Identification {
label = "Identification"    

  node [ color = "#0000ff" ]

DDI4_Identifiable [
  label = "{<id>DDI_Identifiable}"

  tooltip = "Identification:Identifiable"
]

}

DDI4_BasedOnObject -> DDI4_ [arrowhead=onormal color="#000000"];

  DDI4_BasedOnObject:BasedOnObject_basedOn_association -> DDI4_Identifiable [ arrowhead=diamond labeldistance=1.9 taillabel="0..n" headlabel="1..n" edgetooltip="basedOn" fontcolor="black" color="#00000"];

}