digraph G {
fontname = "Bitstream Vera Sans"
fontsize = 8

overlap=false;

compound=true;    

node [
  fontname = "Bitstream Vera Sans"
  fontsize = 8
  shape = "record"
]

edge [
  fontname = "Bitstream Vera Sans"
  fontsize = 8
  mode="ipsep"            
]


DDI4_Command [
  label = "{<id>Command | + programLanguage : ExternalControlledVocabularyEntry \l + commandContent :  \l \l \l| \l \l}"

  tooltip = "ComplexDataTypes:Command"
]

DDI4_Command -> DDI4_ [arrowhead=onormal color="#000000"];

}