digraph G {
fontname = "Bitstream Vera Sans"
fontsize = 8

overlap=false;

compound=true;    

node [
  fontname = "Bitstream Vera Sans"
  fontsize = 8
  shape = "record"
]

edge [
  fontname = "Bitstream Vera Sans"
  fontsize = 8
  mode="ipsep"            
]


DDI4_AccessLocation [
  label = "{<id>AccessLocation | + externalURLReference : URL \l + internalURLReference :  \l + mimeType : ExternalControlledVocabularyEntry \l + physicalLocation : InternationalString \l \l \l| \l \l}"

  tooltip = "ComplexDataTypes:AccessLocation"
]

DDI4_Address [
  label = "{<id>Address | + typeOfAddress : ExternalControlledVocabularyEntry \l + line :  \l + cityPlaceLocal :  \l + stateProvince :  \l + postalCode :  \l + countryCode : ExternalControlledVocabularyEntry \l + timeZone : ExternalControlledVocabularyEntry \l + effectivePeriod :  \l + privacy : ExternalControlledVocabularyEntry \l + isPreferred :  \l + geographicPoint : Point \l + regionalCoverage : ExternalControlledVocabularyEntry \l + typeOfLocation : ExternalControlledVocabularyEntry \l + locationName : Name \l \l \l| \l \l}"

  tooltip = "ComplexDataTypes:Address"
]

DDI4_AgentAssociation [
  label = "{<id>AgentAssociation | + agent : BibliographicName \l + role : PairedExternalControlledVocabularyEntry \l \l \l| <AgentAssociation_agentAssociation_association> agentAssociation \l \l}"

  tooltip = "ComplexDataTypes:AgentAssociation"
]

DDI4_AgentId [
  label = "{<id>AgentId | + agentIdValue :  \l + agentIdType :  \l \l \l| \l \l}"

  tooltip = "ComplexDataTypes:AgentId"
]

DDI4_Annotation [
  label = "{<id>Annotation | + title : InternationalString \l + subTitle : InternationalString \l + alternativeTitle : InternationalString \l + creator : AgentAssociation \l + publisher : AgentAssociation \l + contributor : AgentAssociation \l + date : AnnotationDate \l + language :  \l + identifier : InternationalIdentifier \l + copyright : InternationalString \l + typeOfResource : ExternalControlledVocabularyEntry \l + informationSource : InternationalString \l + versionIdentification :  \l + versionResponsibility : AgentAssociation \l + abstract : InternationalString \l + relatedResource : ResourceIdentifier \l + provenance : InternationalString \l + rights : InternationalString \l + recordCreationDate : IsoDate \l + recordLastRevisionDate : IsoDate \l \l \l| \l \l}"

  tooltip = "ComplexDataTypes:Annotation"
]

DDI4_AnnotationDate [
  label = "{<id>AnnotationDate | + typeOfDate : ExternalControlledVocabularyEntry \l \l \l| \l \l}"

  tooltip = "ComplexDataTypes:AnnotationDate"
]

DDI4_AudioSegment [
  label = "{<id>AudioSegment | + typeOfAudioClip : ExternalControlledVocabularyEntry \l + audioClipBegin :  \l + audioClipEnd :  \l \l \l| \l \l}"

  tooltip = "ComplexDataTypes:AudioSegment"
]

DDI4_BasedOnObject [
  label = "{<id>BasedOnObject | + basedOnRationaleDescription : InternationalString \l + basedOnRationaleCode : ExternalControlledVocabularyEntry \l \l \l| <BasedOnObject_basedOn_association> basedOn \l \l}"

  tooltip = "ComplexDataTypes:BasedOnObject"
]

DDI4_BibliographicName [
  label = "{<id>BibliographicName | + affiliation :  \l \l \l| \l \l}"

  tooltip = "ComplexDataTypes:BibliographicName"
]

DDI4_CharacterOffset [
  label = "{<id>CharacterOffset | + startCharOffset :  \l + endCharOffset :  \l + characterLength :  \l \l \l| \l \l}"

  tooltip = "ComplexDataTypes:CharacterOffset"
]

DDI4_Command [
  label = "{<id>Command | + programLanguage : ExternalControlledVocabularyEntry \l + commandContent :  \l \l \l| \l \l}"

  tooltip = "ComplexDataTypes:Command"
]

DDI4_CommandCode [
  label = "{<id>CommandCode | + description : StructuredString \l + structuredCommand : StructuredCommand \l + commandFile : CommandFile \l + command : Command \l \l \l| \l \l}"

  tooltip = "ComplexDataTypes:CommandCode"
]

DDI4_CommandFile [
  label = "{<id>CommandFile | + programLanguage : ExternalControlledVocabularyEntry \l + location : InternationalString \l + uri :  \l \l \l| \l \l}"

  tooltip = "ComplexDataTypes:CommandFile"
]

DDI4_ConditionalText [
  label = "{<id>ConditionalText | + expression : CommandCode \l \l \l| \l \l}"

  tooltip = "ComplexDataTypes:ConditionalText"
]

DDI4_ContactInformation [
  label = "{<id>ContactInformation | + website : URL \l + email : Email \l + electronicMessaging : ElectronicMessageSystem \l + address : Address \l + telephone : Telephone \l \l \l| \l \l}"

  tooltip = "ComplexDataTypes:ContactInformation"
]

DDI4_Content [
  label = "{<id>Content | + content : xhtml:BlkNoForm.mix \l + language :  \l + isTranslated :  \l + isTranslatable :  \l + translationSourceLanguage :  \l + translationDate :  \l + isPlainText :  \l \l \l| \l \l}"

  tooltip = "ComplexDataTypes:Content"
]

DDI4_ContentDateOffset [
  label = "{<id>ContentDateOffset | + numberOfUnits :  \l + isNegativeOffset :  \l \l \l| \l \l}"

  tooltip = "ComplexDataTypes:ContentDateOffset"
]

DDI4_CorrespondenceType [
  label = "{<id>CorrespondenceType | + commonality : StructuredString \l + difference : StructuredString \l + commonalityTypeCode : ExternalControlledVocabularyEntry \l \l \l| \l \l}"

  tooltip = "ComplexDataTypes:CorrespondenceType"
]

DDI4_Date [
  label = "{<id>Date | + isoDate : IsoDate \l + nonIsoDate : NonIsoDateType \l \l \l| \l \l}"

  tooltip = "ComplexDataTypes:Date"
]

DDI4_DateRange [
  label = "{<id>DateRange | + startDate : Date \l + endDate : Date \l \l \l| \l \l}"

  tooltip = "ComplexDataTypes:DateRange"
]

DDI4_DescribedRelationship [
  label = "{<id>DescribedRelationship | + rationale : StructuredString \l \l \l| <DescribedRelationship_relatedTo_association> relatedTo \l \l}"

  tooltip = "ComplexDataTypes:DescribedRelationship"
]

DDI4_DisplayLabel [
  label = "{<id>DisplayLabel | + locationVariant : ExternalControlledVocabularyEntry \l + validDates : DateRange \l + maxLength :  \l \l \l| \l \l}"

  tooltip = "ComplexDataTypes:DisplayLabel"
]

DDI4_DynamicText [
  label = "{<id>DynamicText | + content : TextContent \l + isStructureRequired :  \l + audienceLanguage :  \l \l \l| \l \l}"

  tooltip = "ComplexDataTypes:DynamicText"
]

DDI4_ElectronicMessageSystem [
  label = "{<id>ElectronicMessageSystem | + contactAddress :  \l + typeOfService : ExternalControlledVocabularyEntry \l + effectiveDates : DateRange \l + privacy : ExternalControlledVocabularyEntry \l + isPreferred :  \l \l \l| \l \l}"

  tooltip = "ComplexDataTypes:ElectronicMessageSystem"
]

DDI4_Email [
  label = "{<id>Email | + internetEmail :  \l + typeOfEmail : ExternalControlledVocabularyEntry \l + effectiveDates : DateRange \l + privacy : ExternalControlledVocabularyEntry \l + isPreferred :  \l \l \l| \l \l}"

  tooltip = "ComplexDataTypes:Email"
]

DDI4_ExternalControlledVocabularyEntry [
  label = "{<id>ExternalControlledVocabularyEntry | + controlledVocabularyID :  \l + controlledVocabularyName :  \l + controlledVocabularyAgencyName :  \l + controlledVocabularyVersionID :  \l + otherValue :  \l + controlledVocabularyURN :  \l + controlledVocabularySchemeURN :  \l + content :  \l + language :  \l \l \l| \l \l}"

  tooltip = "ComplexDataTypes:ExternalControlledVocabularyEntry"
]

DDI4_Form [
  label = "{<id>Form | + formNumber :  \l + uri :  \l + statement : InternationalString \l + isRequired :  \l \l \l| \l \l}"

  tooltip = "ComplexDataTypes:Form"
]

DDI4_Image [
  label = "{<id>Image | + imageLocation :  \l + typeOfImage : ExternalControlledVocabularyEntry \l + dpi :  \l + languageOfImage :  \l \l \l| \l \l}"

  tooltip = "ComplexDataTypes:Image"
]

DDI4_ImageArea [
  label = "{<id>ImageArea | + coordinates :  \l + shape : ShapeCoded \l \l \l| \l \l}"

  tooltip = "ComplexDataTypes:ImageArea"
]

DDI4_IndividualName [
  label = "{<id>IndividualName | + prefix :  \l + firstGiven :  \l + middle :  \l + lastFamily :  \l + suffix :  \l + fullName : InternationalString \l + effectiveDates : DateRange \l + abbreviation : InternationalString \l + typeOfIndividualName : ExternalControlledVocabularyEntry \l + sex : SexSpecificationType \l + isPreferred :  \l + context :  \l + isFormal :  \l \l \l| \l \l}"

  tooltip = "ComplexDataTypes:IndividualName"
]

DDI4_InternationalIdentifier [
  label = "{<id>InternationalIdentifier | + identifierContent :  \l + managingAgency : ExternalControlledVocabularyEntry \l + isURI :  \l \l \l| \l \l}"

  tooltip = "ComplexDataTypes:InternationalIdentifier"
]

DDI4_InternationalString [
  label = "{<id>InternationalString | + string : String \l \l \l| \l \l}"

  tooltip = "ComplexDataTypes:InternationalString"
]

DDI4_LineParameter [
  label = "{<id>LineParameter | + startLine :  \l + startOffset :  \l + endLine :  \l + endOffset :  \l \l \l| \l \l}"

  tooltip = "ComplexDataTypes:LineParameter"
]

DDI4_LiteralText [
  label = "{<id>LiteralText | + text : Text \l \l \l| \l \l}"

  tooltip = "ComplexDataTypes:LiteralText"
]

DDI4_LocalId [
  label = "{<id>LocalId | + localIdValue :  \l + localIdType :  \l + localIdVersion :  \l \l \l| \l \l}"

  tooltip = "ComplexDataTypes:LocalId"
]

DDI4_LocationName [
  label = "{<id>LocationName | + effectiveDates : DateRange \l \l \l| \l \l}"

  tooltip = "ComplexDataTypes:LocationName"
]

DDI4_Name [
  label = "{<id>Name | + content :  \l + context : ExternalControlledVocabularyEntry \l \l \l| \l \l}"

  tooltip = "ComplexDataTypes:Name"
]

DDI4_NonIsoDateType [
  label = "{<id>NonIsoDateType | + dateContent :  \l + nonIsoDateFormat : ExternalControlledVocabularyEntry \l + calendar : ExternalControlledVocabularyEntry \l \l \l| \l \l}"

  tooltip = "ComplexDataTypes:NonIsoDateType"
]

DDI4_OrganizationName [
  label = "{<id>OrganizationName | + abbreviation : InternationalString \l + typeOfOrganizationName : ExternalControlledVocabularyEntry \l + effectiveDates : DateRange \l + isFormal :  \l \l \l| \l \l}"

  tooltip = "ComplexDataTypes:OrganizationName"
]

DDI4_PairedExternalControlledVocabularyEntry [
  label = "{<id>PairedExternalControlledVocabularyEntry | + extent : ExternalControlledVocabularyEntry \l \l \l| \l \l}"

  tooltip = "ComplexDataTypes:PairedExternalControlledVocabularyEntry"
]

DDI4_Point [
  label = "{<id>Point | + xCoordinate : SpatialCoordinate \l + yCoordinate : SpatialCoordinate \l \l \l| \l \l}"

  tooltip = "ComplexDataTypes:Point"
]

DDI4_Polygon [
  label = "{<id>Polygon | + externalURI :  \l + polygonLinkCode :  \l + shapeFileFormat : ExternalControlledVocabularyEntry \l + point : Point \l \l \l| \l \l}"

  tooltip = "ComplexDataTypes:Polygon"
]

DDI4_PrivateImage [
  label = "{<id>PrivateImage | + effectiveDates : DateRange \l + privacy : ExternalControlledVocabularyEntry \l \l \l| \l \l}"

  tooltip = "ComplexDataTypes:PrivateImage"
]

DDI4_Range [
  label = "{<id>Range | + rangeUnit :  \l + minimumValue : RangeValue \l + maximumValue : RangeValue \l \l \l| \l \l}"

  tooltip = "ComplexDataTypes:Range"
]

DDI4_RangeValue [
  label = "{<id>RangeValue | + included :  \l \l \l| \l \l}"

  tooltip = "ComplexDataTypes:RangeValue"
]

DDI4_ReferenceDate [
  label = "{<id>ReferenceDate | + subject : ExternalControlledVocabularyEntry \l + keyword : ExternalControlledVocabularyEntry \l \l \l| \l \l}"

  tooltip = "ComplexDataTypes:ReferenceDate"
]

DDI4_ResourceIdentifier [
  label = "{<id>ResourceIdentifier | + typeOfRelatedResource : ExternalControlledVocabularyEntry \l \l \l| \l \l}"

  tooltip = "ComplexDataTypes:ResourceIdentifier"
]

DDI4_Segment [
  label = "{<id>Segment | + audioSegment : AudioSegment \l + videoSegment : VideoSegment \l + xml :  \l + textualSegment : TextualSegment \l + imageArea : ImageArea \l \l \l| \l \l}"

  tooltip = "ComplexDataTypes:Segment"
]

DDI4_Software [
  label = "{<id>Software | + softwareName : Name \l + softwarePackage : ExternalControlledVocabularyEntry \l + softwareVersion :  \l + purpose : StructuredString \l + issueDate : Date \l + function : ExternalControlledVocabularyEntry \l + packageLanguage :  \l + usage : StructuredString \l \l \l| \l \l}"

  tooltip = "ComplexDataTypes:Software"
]

DDI4_SpatialCoordinate [
  label = "{<id>SpatialCoordinate | + coordinateValue :  \l + coordinateType : PointFormat \l \l \l| \l \l}"

  tooltip = "ComplexDataTypes:SpatialCoordinate"
]

DDI4_SpecificSequence [
  label = "{<id>SpecificSequence | + itemSequence : ItemSequenceType \l + alternateSequence : CommandCode \l \l \l| \l \l}"

  tooltip = "ComplexDataTypes:SpecificSequence"
]

DDI4_StandardKeyValuePair [
  label = "{<id>StandardKeyValuePair | + attributeKey : ExternalControlledVocabularyEntry \l + attributeValue : ExternalControlledVocabularyEntry \l \l \l| \l \l}"

  tooltip = "ComplexDataTypes:StandardKeyValuePair"
]

DDI4_Statistic [
  label = "{<id>Statistic | + isWeighted :  \l + computationBase : ComputationBaseList \l + value :  \l \l \l| \l \l}"

  tooltip = "ComplexDataTypes:Statistic"
]

DDI4_String [
  label = "{<id>String | + content :  \l + language :  \l + isTranslated :  \l + isTranslatable :  \l + translationSourceLanguage :  \l + translationDate :  \l \l \l| \l \l}"

  tooltip = "ComplexDataTypes:String"
]

DDI4_StructuredCommand [
  label = "{<id>StructuredCommand | \l \l| \l \l}"

  tooltip = "ComplexDataTypes:StructuredCommand"
]

DDI4_StructuredString [
  label = "{<id>StructuredString | + content : Content \l \l \l| \l \l}"

  tooltip = "ComplexDataTypes:StructuredString"
]

DDI4_TargetSample [
  label = "{<id>TargetSample | + isPrimary :  \l + targetSize :  \l + targetPercent :  \l \l \l| <TargetSample_hasUnitType_association> hasUnitType \l| <TargetSample_fromUniverse_association> fromUniverse \l \l}"

  tooltip = "ComplexDataTypes:TargetSample"
]

DDI4_Telephone [
  label = "{<id>Telephone | + telephoneNumber :  \l + typeOfTelephone : ExternalControlledVocabularyEntry \l + effectiveDates : DateRange \l + privacy : ExternalControlledVocabularyEntry \l + isPreferred :  \l \l \l| \l \l}"

  tooltip = "ComplexDataTypes:Telephone"
]

DDI4_Text [
  label = "{<id>Text | + whiteSpace : WhiteSpace \l \l \l| \l \l}"

  tooltip = "ComplexDataTypes:Text"
]

DDI4_TextContent [
  label = "{<id>TextContent | + purpose : StructuredString \l + orderPosition :  \l \l \l| \l \l}"

  tooltip = "ComplexDataTypes:TextContent"
]

DDI4_TextualSegment [
  label = "{<id>TextualSegment | + lineParamenter : LineParameter \l + characterParameter : CharacterOffset \l \l \l| \l \l}"

  tooltip = "ComplexDataTypes:TextualSegment"
]

DDI4_TypedDescriptiveText [
  label = "{<id>TypedDescriptiveText | + contentCoverage : ExternalControlledVocabularyEntry \l + descriptiveText : StructuredString \l \l \l| \l \l}"

  tooltip = "ComplexDataTypes:TypedDescriptiveText"
]

DDI4_URI [
  label = "{<id>URI | + isPublic :  \l + content :  \l \l \l| \l \l}"

  tooltip = "ComplexDataTypes:URI"
]

DDI4_URL [
  label = "{<id>URL | + isPreferred :  \l + content :  \l + typeOfWebsite : ExternalControlledVocabularyEntry \l + effectiveDates : DateRange \l + privacy : ExternalControlledVocabularyEntry \l \l \l| \l \l}"

  tooltip = "ComplexDataTypes:URL"
]

DDI4_Value [
  label = "{<id>Value | + content :  \l + whiteSpace : WhiteSpace \l \l \l| \l \l}"

  tooltip = "ComplexDataTypes:Value"
]

DDI4_VideoSegment [
  label = "{<id>VideoSegment | + typeOfVideoClip : ExternalControlledVocabularyEntry \l + videoClipBegin :  \l + videoClipEnd :  \l \l \l| \l \l}"

  tooltip = "ComplexDataTypes:VideoSegment"
]

DDI4_XMLPrefixMap [
  label = "{<id>XMLPrefixMap | + xmlPrefix :  \l + xmlNamespace :  \l \l \l| \l \l}"

  tooltip = "ComplexDataTypes:XMLPrefixMap"
]

subgraph Conceptual {
label = "Conceptual"    

  node [ color = "#0000ff" ]

DDI4_UnitType [
  label = "{<id>DDI_UnitType}"

  tooltip = "Conceptual:UnitType"
]

DDI4_Universe [
  label = "{<id>DDI_Universe}"

  tooltip = "Conceptual:Universe"
]

}

subgraph Agents {
label = "Agents"    

  node [ color = "#0000ff" ]

DDI4_Agent [
  label = "{<id>DDI_Agent}"

  tooltip = "Agents:Agent"
]

}

subgraph Identification {
label = "Identification"    

  node [ color = "#0000ff" ]

DDI4_Identifiable [
  label = "{<id>DDI_Identifiable}"

  tooltip = "Identification:Identifiable"
]

}

DDI4_AccessLocation -> DDI4_ [arrowhead=onormal color="#000000"];

DDI4_Address -> DDI4_ [arrowhead=onormal color="#000000"];

DDI4_AgentAssociation -> DDI4_ [arrowhead=onormal color="#000000"];

  DDI4_AgentAssociation:AgentAssociation_agentAssociation_association -> DDI4_Agent [ arrowhead=odiamond labeldistance=1.9 taillabel="0..n" headlabel="0..1" edgetooltip="agentAssociation" fontcolor="black" color="#00000"];

DDI4_AgentId -> DDI4_ [arrowhead=onormal color="#000000"];

DDI4_Annotation -> DDI4_ [arrowhead=onormal color="#000000"];

DDI4_AnnotationDate -> DDI4_Date [arrowhead=onormal color="#000000"];

DDI4_AudioSegment -> DDI4_ [arrowhead=onormal color="#000000"];

DDI4_BasedOnObject -> DDI4_ [arrowhead=onormal color="#000000"];

  DDI4_BasedOnObject:BasedOnObject_basedOn_association -> DDI4_Identifiable [ arrowhead=diamond labeldistance=1.9 taillabel="0..n" headlabel="1..n" edgetooltip="basedOn" fontcolor="black" color="#00000"];

DDI4_BibliographicName -> DDI4_InternationalString [arrowhead=onormal color="#000000"];

DDI4_CharacterOffset -> DDI4_ [arrowhead=onormal color="#000000"];

DDI4_Command -> DDI4_ [arrowhead=onormal color="#000000"];

DDI4_CommandCode -> DDI4_ [arrowhead=onormal color="#000000"];

DDI4_CommandFile -> DDI4_ [arrowhead=onormal color="#000000"];

DDI4_ConditionalText -> DDI4_TextContent [arrowhead=onormal color="#000000"];

DDI4_ContactInformation -> DDI4_ [arrowhead=onormal color="#000000"];

DDI4_Content -> DDI4_ [arrowhead=onormal color="#000000"];

DDI4_ContentDateOffset -> DDI4_ExternalControlledVocabularyEntry [arrowhead=onormal color="#000000"];

DDI4_CorrespondenceType -> DDI4_ [arrowhead=onormal color="#000000"];

DDI4_Date -> DDI4_ [arrowhead=onormal color="#000000"];

DDI4_DateRange -> DDI4_ [arrowhead=onormal color="#000000"];

DDI4_DescribedRelationship -> DDI4_ [arrowhead=onormal color="#000000"];

  DDI4_DescribedRelationship:DescribedRelationship_relatedTo_association -> DDI4_Identifiable [ arrowhead=diamond labeldistance=1.9 taillabel="0..n" headlabel="1..1" edgetooltip="relatedTo" fontcolor="black" color="#00000"];

DDI4_DisplayLabel -> DDI4_StructuredString [arrowhead=onormal color="#000000"];

DDI4_DynamicText -> DDI4_ [arrowhead=onormal color="#000000"];

DDI4_ElectronicMessageSystem -> DDI4_ [arrowhead=onormal color="#000000"];

DDI4_Email -> DDI4_ [arrowhead=onormal color="#000000"];

DDI4_ExternalControlledVocabularyEntry -> DDI4_ [arrowhead=onormal color="#000000"];

DDI4_Form -> DDI4_ [arrowhead=onormal color="#000000"];

DDI4_Image -> DDI4_ [arrowhead=onormal color="#000000"];

DDI4_ImageArea -> DDI4_ [arrowhead=onormal color="#000000"];

DDI4_IndividualName -> DDI4_ [arrowhead=onormal color="#000000"];

DDI4_InternationalIdentifier -> DDI4_ [arrowhead=onormal color="#000000"];

DDI4_InternationalString -> DDI4_ [arrowhead=onormal color="#000000"];

DDI4_LineParameter -> DDI4_ [arrowhead=onormal color="#000000"];

DDI4_LiteralText -> DDI4_TextContent [arrowhead=onormal color="#000000"];

DDI4_LocalId -> DDI4_ [arrowhead=onormal color="#000000"];

DDI4_LocationName -> DDI4_Name [arrowhead=onormal color="#000000"];

DDI4_Name -> DDI4_ [arrowhead=onormal color="#000000"];

DDI4_NonIsoDateType -> DDI4_ [arrowhead=onormal color="#000000"];

DDI4_OrganizationName -> DDI4_Name [arrowhead=onormal color="#000000"];

DDI4_PairedExternalControlledVocabularyEntry -> DDI4_ExternalControlledVocabularyEntry [arrowhead=onormal color="#000000"];

DDI4_Point -> DDI4_ [arrowhead=onormal color="#000000"];

DDI4_Polygon -> DDI4_ [arrowhead=onormal color="#000000"];

DDI4_PrivateImage -> DDI4_Image [arrowhead=onormal color="#000000"];

DDI4_Range -> DDI4_ [arrowhead=onormal color="#000000"];

DDI4_RangeValue -> DDI4_Value [arrowhead=onormal color="#000000"];

DDI4_ReferenceDate -> DDI4_AnnotationDate [arrowhead=onormal color="#000000"];

DDI4_ResourceIdentifier -> DDI4_InternationalIdentifier [arrowhead=onormal color="#000000"];

DDI4_Segment -> DDI4_ [arrowhead=onormal color="#000000"];

DDI4_Software -> DDI4_ [arrowhead=onormal color="#000000"];

DDI4_SpatialCoordinate -> DDI4_ [arrowhead=onormal color="#000000"];

DDI4_SpecificSequence -> DDI4_ [arrowhead=onormal color="#000000"];

DDI4_StandardKeyValuePair -> DDI4_ [arrowhead=onormal color="#000000"];

DDI4_Statistic -> DDI4_ [arrowhead=onormal color="#000000"];

DDI4_String -> DDI4_ [arrowhead=onormal color="#000000"];

DDI4_StructuredCommand -> DDI4_ [arrowhead=onormal color="#000000"];

DDI4_StructuredString -> DDI4_ [arrowhead=onormal color="#000000"];

DDI4_TargetSample -> DDI4_ [arrowhead=onormal color="#000000"];

  DDI4_TargetSample:TargetSample_hasUnitType_association -> DDI4_UnitType [ arrowhead=odiamond labeldistance=1.9 taillabel="0..n" headlabel="0..1" edgetooltip="hasUnitType" fontcolor="black" color="#00000"];

  DDI4_TargetSample:TargetSample_fromUniverse_association -> DDI4_Universe [ arrowhead=odiamond labeldistance=1.9 taillabel="0..n" headlabel="0..1" edgetooltip="fromUniverse" fontcolor="black" color="#00000"];

DDI4_Telephone -> DDI4_ [arrowhead=onormal color="#000000"];

DDI4_Text -> DDI4_Content [arrowhead=onormal color="#000000"];

DDI4_TextContent -> DDI4_ [arrowhead=onormal color="#000000"];

DDI4_TextualSegment -> DDI4_ [arrowhead=onormal color="#000000"];

DDI4_TypedDescriptiveText -> DDI4_ [arrowhead=onormal color="#000000"];

DDI4_URI -> DDI4_ [arrowhead=onormal color="#000000"];

DDI4_URL -> DDI4_ [arrowhead=onormal color="#000000"];

DDI4_Value -> DDI4_ [arrowhead=onormal color="#000000"];

DDI4_VideoSegment -> DDI4_ [arrowhead=onormal color="#000000"];

DDI4_XMLPrefixMap -> DDI4_ [arrowhead=onormal color="#000000"];

}