digraph G {
fontname = "Bitstream Vera Sans"
fontsize = 8

overlap=false;

compound=true;    

node [
  fontname = "Bitstream Vera Sans"
  fontsize = 8
  shape = "record"
]

edge [
  fontname = "Bitstream Vera Sans"
  fontsize = 8
  mode="ipsep"            
]


DDI4_DateRange [
  label = "{<id>DateRange | + startDate : Date \l + endDate : Date \l \l \l| \l \l}"

  tooltip = "ComplexDataTypes:DateRange"
]

DDI4_DateRange -> DDI4_ [arrowhead=onormal color="#000000"];

}