digraph G {
fontname = "Bitstream Vera Sans"
fontsize = 8

overlap=false;

compound=true;    

node [
  fontname = "Bitstream Vera Sans"
  fontsize = 8
  shape = "record"
]

edge [
  fontname = "Bitstream Vera Sans"
  fontsize = 8
  mode="ipsep"            
]


DDI4_ElectronicMessageSystem [
  label = "{<id>ElectronicMessageSystem | + contactAddress :  \l + typeOfService : ExternalControlledVocabularyEntry \l + effectiveDates : DateRange \l + privacy : ExternalControlledVocabularyEntry \l + isPreferred :  \l \l \l| \l \l}"

  tooltip = "ComplexDataTypes:ElectronicMessageSystem"
]

DDI4_ElectronicMessageSystem -> DDI4_ [arrowhead=onormal color="#000000"];

}