digraph G {
fontname = "Bitstream Vera Sans"
fontsize = 8

overlap=false;

compound=true;    

node [
  fontname = "Bitstream Vera Sans"
  fontsize = 8
  shape = "record"
]

edge [
  fontname = "Bitstream Vera Sans"
  fontsize = 8
  mode="ipsep"            
]


DDI4_Email [
  label = "{<id>Email | + internetEmail :  \l + typeOfEmail : ExternalControlledVocabularyEntry \l + effectiveDates : DateRange \l + privacy : ExternalControlledVocabularyEntry \l + isPreferred :  \l \l \l| \l \l}"

  tooltip = "ComplexDataTypes:Email"
]

DDI4_Email -> DDI4_ [arrowhead=onormal color="#000000"];

}