digraph G {
fontname = "Bitstream Vera Sans"
fontsize = 8

overlap=false;

compound=true;    

node [
  fontname = "Bitstream Vera Sans"
  fontsize = 8
  shape = "record"
]

edge [
  fontname = "Bitstream Vera Sans"
  fontsize = 8
  mode="ipsep"            
]


DDI4_NonIsoDateType [
  label = "{<id>NonIsoDateType | + dateContent :  \l + nonIsoDateFormat : ExternalControlledVocabularyEntry \l + calendar : ExternalControlledVocabularyEntry \l \l \l| \l \l}"

  tooltip = "ComplexDataTypes:NonIsoDateType"
]

DDI4_NonIsoDateType -> DDI4_ [arrowhead=onormal color="#000000"];

}