digraph G {
fontname = "Bitstream Vera Sans"
fontsize = 8

overlap=false;

compound=true;    

node [
  fontname = "Bitstream Vera Sans"
  fontsize = 8
  shape = "record"
]

edge [
  fontname = "Bitstream Vera Sans"
  fontsize = 8
  mode="ipsep"            
]


DDI4_PairedExternalControlledVocabularyEntry [
  label = "{<id>PairedExternalControlledVocabularyEntry | + extent : ExternalControlledVocabularyEntry \l \l \l| \l \l}"

  tooltip = "ComplexDataTypes:PairedExternalControlledVocabularyEntry"
]

subgraph ComplexDataTypes {
label = "ComplexDataTypes"    

  node [ color = "#0000ff" ]

DDI4_ExternalControlledVocabularyEntry [
  label = "{<id>DDI_ExternalControlledVocabularyEntry}"

  tooltip = "ComplexDataTypes:ExternalControlledVocabularyEntry"
]

}

DDI4_PairedExternalControlledVocabularyEntry -> DDI4_ExternalControlledVocabularyEntry [arrowhead=onormal color="#000000"];

}