digraph G {
fontname = "Bitstream Vera Sans"
fontsize = 8

overlap=false;

compound=true;    

node [
  fontname = "Bitstream Vera Sans"
  fontsize = 8
  shape = "record"
]

edge [
  fontname = "Bitstream Vera Sans"
  fontsize = 8
  mode="ipsep"            
]


DDI4_Point [
  label = "{<id>Point | + xCoordinate : SpatialCoordinate \l + yCoordinate : SpatialCoordinate \l \l \l| \l \l}"

  tooltip = "ComplexDataTypes:Point"
]

DDI4_Point -> DDI4_ [arrowhead=onormal color="#000000"];

}