digraph G {
fontname = "Bitstream Vera Sans"
fontsize = 8

overlap=false;

compound=true;    

node [
  fontname = "Bitstream Vera Sans"
  fontsize = 8
  shape = "record"
]

edge [
  fontname = "Bitstream Vera Sans"
  fontsize = 8
  mode="ipsep"            
]


DDI4_SpatialCoordinate [
  label = "{<id>SpatialCoordinate | + coordinateValue :  \l + coordinateType : PointFormat \l \l \l| \l \l}"

  tooltip = "ComplexDataTypes:SpatialCoordinate"
]

DDI4_SpatialCoordinate -> DDI4_ [arrowhead=onormal color="#000000"];

}