digraph G {
fontname = "Bitstream Vera Sans"
fontsize = 8

overlap=false;

compound=true;    

node [
  fontname = "Bitstream Vera Sans"
  fontsize = 8
  shape = "record"
]

edge [
  fontname = "Bitstream Vera Sans"
  fontsize = 8
  mode="ipsep"            
]


DDI4_Text [
  label = "{<id>Text | + whiteSpace : WhiteSpace \l \l \l| \l \l}"

  tooltip = "ComplexDataTypes:Text"
]

subgraph ComplexDataTypes {
label = "ComplexDataTypes"    

  node [ color = "#0000ff" ]

DDI4_Content [
  label = "{<id>DDI_Content}"

  tooltip = "ComplexDataTypes:Content"
]

}

DDI4_Text -> DDI4_Content [arrowhead=onormal color="#000000"];

}