digraph G {
fontname = "Bitstream Vera Sans"
fontsize = 8

overlap=false;

compound=true;    

node [
  fontname = "Bitstream Vera Sans"
  fontsize = 8
  shape = "record"
]

edge [
  fontname = "Bitstream Vera Sans"
  fontsize = 8
  mode="ipsep"            
]


DDI4_TypedDescriptiveText [
  label = "{<id>TypedDescriptiveText | + contentCoverage : ExternalControlledVocabularyEntry \l + descriptiveText : StructuredString \l \l \l| \l \l}"

  tooltip = "ComplexDataTypes:TypedDescriptiveText"
]

DDI4_TypedDescriptiveText -> DDI4_ [arrowhead=onormal color="#000000"];

}