digraph G {
fontname = "Bitstream Vera Sans"
fontsize = 8

overlap=false;

compound=true;    

node [
  fontname = "Bitstream Vera Sans"
  fontsize = 8
  shape = "record"
]

edge [
  fontname = "Bitstream Vera Sans"
  fontsize = 8
  mode="ipsep"            
]


DDI4_VideoSegment [
  label = "{<id>VideoSegment | + typeOfVideoClip : ExternalControlledVocabularyEntry \l + videoClipBegin :  \l + videoClipEnd :  \l \l \l| \l \l}"

  tooltip = "ComplexDataTypes:VideoSegment"
]

DDI4_VideoSegment -> DDI4_ [arrowhead=onormal color="#000000"];

}