digraph G {
fontname = "Bitstream Vera Sans"
fontsize = 8

overlap=false;

compound=true;    

node [
  fontname = "Bitstream Vera Sans"
  fontsize = 8
  shape = "record"
]

edge [
  fontname = "Bitstream Vera Sans"
  fontsize = 8
  mode="ipsep"            
]


DDI4_DocumentInformation [
  label = "{<id>DocumentInformation | + contentCoverage : TypedDescriptiveText \l + isPublished :  \l + hasPrimaryContent :  \l + ofType : DDI4Version \l \l \l| <DocumentInformation_hasDocumentCoverage_association> hasDocumentCoverage \l| <DocumentInformation_hasPersistentAccessControl_association> hasPersistentAccessControl \l| <DocumentInformation_hasLocalAccessConrol_association> hasLocalAccessConrol \l| <DocumentInformation_hasFundingSource_association> hasFundingSource \l| <DocumentInformation_hasExternalMaterial_association> hasExternalMaterial \l| <DocumentInformation_partOfSeries_association> partOfSeries \l \l}"

  tooltip = "Utility:DocumentInformation"
]

subgraph Discovery {
label = "Discovery"    

  node [ color = "#0000ff" ]

DDI4_Access [
  label = "{<id>DDI_Access}"

  tooltip = "Discovery:Access"
]

DDI4_Coverage [
  label = "{<id>DDI_Coverage}"

  tooltip = "Discovery:Coverage"
]

DDI4_SeriesStatement [
  label = "{<id>DDI_SeriesStatement}"

  tooltip = "Discovery:SeriesStatement"
]

}

subgraph Identification {
label = "Identification"    

  node [ color = "#0000ff" ]

DDI4_AnnotatedIdentifiable [
  label = "{<id>DDI_AnnotatedIdentifiable}"

  tooltip = "Identification:AnnotatedIdentifiable"
]

}

subgraph Utility {
label = "Utility"    

  node [ color = "#0000ff" ]

DDI4_ExternalMaterial [
  label = "{<id>DDI_ExternalMaterial}"

  tooltip = "Utility:ExternalMaterial"
]

DDI4_FundingInformation [
  label = "{<id>DDI_FundingInformation}"

  tooltip = "Utility:FundingInformation"
]

}

DDI4_DocumentInformation -> DDI4_AnnotatedIdentifiable [arrowhead=onormal color="#000000"];

  DDI4_DocumentInformation:DocumentInformation_hasDocumentCoverage_association -> DDI4_Coverage [ arrowhead=odiamond labeldistance=1.9 taillabel="0..n" headlabel="0..1" edgetooltip="hasDocumentCoverage" fontcolor="black" color="#00000"];

  DDI4_DocumentInformation:DocumentInformation_hasPersistentAccessControl_association -> DDI4_Access [ arrowhead=odiamond labeldistance=1.9 taillabel="0..n" headlabel="0..n" edgetooltip="hasPersistentAccessControl" fontcolor="black" color="#00000"];

  DDI4_DocumentInformation:DocumentInformation_hasLocalAccessConrol_association -> DDI4_Access [ arrowhead=odiamond labeldistance=1.9 taillabel="0..n" headlabel="0..n" edgetooltip="hasLocalAccessConrol" fontcolor="black" color="#00000"];

  DDI4_DocumentInformation:DocumentInformation_hasFundingSource_association -> DDI4_FundingInformation [ arrowhead=odiamond labeldistance=1.9 taillabel="0..n" headlabel="0..n" edgetooltip="hasFundingSource" fontcolor="black" color="#00000"];

  DDI4_DocumentInformation:DocumentInformation_hasExternalMaterial_association -> DDI4_ExternalMaterial [ arrowhead=odiamond labeldistance=1.9 taillabel="0..n" headlabel="0..n" edgetooltip="hasExternalMaterial" fontcolor="black" color="#00000"];

  DDI4_DocumentInformation:DocumentInformation_partOfSeries_association -> DDI4_SeriesStatement [ arrowhead=odiamond labeldistance=1.9 taillabel="0..n" headlabel="0..n" edgetooltip="partOfSeries" fontcolor="black" color="#00000"];

}