digraph G {
fontname = "Bitstream Vera Sans"
fontsize = 8

overlap=false;

compound=true;    

node [
  fontname = "Bitstream Vera Sans"
  fontsize = 8
  shape = "record"
]

edge [
  fontname = "Bitstream Vera Sans"
  fontsize = 8
  mode="ipsep"            
]


DDI4_AgentSimilarity [
  label = "{<id>AgentSimilarity | + totality : TotalityType \l + reflexivity : ReflexivityType \l + symmetry : SymmetryType \l + transitivity : TransitivityType \l + semantics : ExternalControlledVocabularyEntry \l \l \l| <AgentSimilarity_contains_association> contains \l| <AgentSimilarity_structures_association> structures \l| <AgentSimilarity_realizes_association> realizes \l \l}"

  tooltip = "Agents:AgentSimilarity"
]

subgraph CollectionsPattern {
label = "CollectionsPattern"    

  node [ color = "#0000ff" ]

DDI4_EquivalenceRelation [
  label = "{<id>DDI_EquivalenceRelation}"

  tooltip = "CollectionsPattern:EquivalenceRelation"
]

}

subgraph Agents {
label = "Agents"    

  node [ color = "#0000ff" ]

DDI4_AgentBinary [
  label = "{<id>DDI_AgentBinary}"

  tooltip = "Agents:AgentBinary"
]

DDI4_AgentListing [
  label = "{<id>DDI_AgentListing}"

  tooltip = "Agents:AgentListing"
]

DDI4_AgentSimilarityPair [
  label = "{<id>DDI_AgentSimilarityPair}"

  tooltip = "Agents:AgentSimilarityPair"
]

}

DDI4_AgentSimilarity -> DDI4_AgentBinary [arrowhead=onormal color="#000000"];

  DDI4_AgentSimilarity:AgentSimilarity_contains_association -> DDI4_AgentSimilarityPair [ arrowhead=odiamond labeldistance=1.9 taillabel="0..n" headlabel="0..n" edgetooltip="contains" fontcolor="black" color="#00000"];

  DDI4_AgentSimilarity:AgentSimilarity_structures_association -> DDI4_AgentListing [ arrowhead=diamond labeldistance=1.9 taillabel="0..n" headlabel="1..n" edgetooltip="structures" fontcolor="black" color="#00000"];

  DDI4_AgentSimilarity:AgentSimilarity_realizes_association -> DDI4_EquivalenceRelation [ arrowhead=none  edgetooltip="realizes" fontcolor="black" color="#00000"];

}