digraph G {
fontname = "Bitstream Vera Sans"
fontsize = 8

overlap=false;

compound=true;    

node [
  fontname = "Bitstream Vera Sans"
  fontsize = 8
  shape = "record"
]

edge [
  fontname = "Bitstream Vera Sans"
  fontsize = 8
  mode="ipsep"            
]


DDI4_Parameters [
  label = "{<id>Parameters | + type : CollectionType \l \l \l| <Parameters_input_association> input \l| <Parameters_output_association> output \l| <Parameters_realizes_association> realizes \l \l}"

  tooltip = "Workflows:Parameters"
]

subgraph ProcessPattern {
label = "ProcessPattern"    

  node [ color = "#0000ff" ]

DDI4_Interface [
  label = "{<id>DDI_Interface}"

  tooltip = "ProcessPattern:Interface"
]

}

subgraph Workflows {
label = "Workflows"    

  node [ color = "#0000ff" ]

DDI4_InputParameter [
  label = "{<id>DDI_InputParameter}"

  tooltip = "Workflows:InputParameter"
]

DDI4_OutputParameter [
  label = "{<id>DDI_OutputParameter}"

  tooltip = "Workflows:OutputParameter"
]

}

subgraph Identification {
label = "Identification"    

  node [ color = "#0000ff" ]

DDI4_AnnotatedIdentifiable [
  label = "{<id>DDI_AnnotatedIdentifiable}"

  tooltip = "Identification:AnnotatedIdentifiable"
]

}

DDI4_Parameters -> DDI4_AnnotatedIdentifiable [arrowhead=onormal color="#000000"];

  DDI4_Parameters:Parameters_input_association -> DDI4_InputParameter [ arrowhead=odiamond labeldistance=1.9 taillabel="0..n" headlabel="0..n" edgetooltip="input" fontcolor="black" color="#00000"];

  DDI4_Parameters:Parameters_output_association -> DDI4_OutputParameter [ arrowhead=odiamond labeldistance=1.9 taillabel="0..n" headlabel="0..n" edgetooltip="output" fontcolor="black" color="#00000"];

  DDI4_Parameters:Parameters_realizes_association -> DDI4_Interface [ arrowhead=none  edgetooltip="realizes" fontcolor="black" color="#00000"];

}