digraph G {
fontname = "Bitstream Vera Sans"
fontsize = 8

overlap=false;

compound=true;    

node [
  fontname = "Bitstream Vera Sans"
  fontsize = 8
  shape = "record"
]

edge [
  fontname = "Bitstream Vera Sans"
  fontsize = 8
  mode="ipsep"            
]


DDI4_RepeatWhile [
  label = "{<id>RepeatWhile | \l \l| \l \l}"

  tooltip = "Workflows:RepeatWhile"
]

subgraph Workflows {
label = "Workflows"    

  node [ color = "#0000ff" ]

DDI4_ConditionalControlConstruct [
  label = "{<id>DDI_ConditionalControlConstruct}"

  tooltip = "Workflows:ConditionalControlConstruct"
]

}

DDI4_RepeatWhile -> DDI4_ConditionalControlConstruct [arrowhead=onormal color="#000000"];

}