digraph G {
fontname = "Bitstream Vera Sans"
fontsize = 8

overlap=false;

compound=true;    

node [
  fontname = "Bitstream Vera Sans"
  fontsize = 8
  shape = "record"
]

edge [
  fontname = "Bitstream Vera Sans"
  fontsize = 8
  mode="ipsep"            
]


DDI4_Workflow [
  label = "{<id>Workflow | + overview : StructuredString \l \l \l| <Workflow_hasDesign_association> hasDesign \l| <Workflow_hasPrecondition_association> hasPrecondition \l| <Workflow_isDiscussedIn_association> isDiscussedIn \l| <Workflow_contains_association> contains \l| <Workflow_hasResults_association> hasResults \l| <Workflow_hasAlgorithm_association> hasAlgorithm \l| <Workflow_realizes_association> realizes \l \l}"

  tooltip = "Workflows:Workflow"
]

subgraph MethodologyPattern {
label = "MethodologyPattern"    

  node [ color = "#0000ff" ]

DDI4_Algorithm [
  label = "{<id>DDI_Algorithm}"

  tooltip = "MethodologyPattern:Algorithm"
]

DDI4_Design [
  label = "{<id>DDI_Design}"

  tooltip = "MethodologyPattern:Design"
]

DDI4_Process [
  label = "{<id>DDI_Process}"

  tooltip = "MethodologyPattern:Process"
]

}

subgraph Methodologies {
label = "Methodologies"    

  node [ color = "#0000ff" ]

DDI4_Precondition [
  label = "{<id>DDI_Precondition}"

  tooltip = "Methodologies:Precondition"
]

DDI4_Result [
  label = "{<id>DDI_Result}"

  tooltip = "Methodologies:Result"
]

}

subgraph Workflows {
label = "Workflows"    

  node [ color = "#0000ff" ]

DDI4_WorkflowSequence [
  label = "{<id>DDI_WorkflowSequence}"

  tooltip = "Workflows:WorkflowSequence"
]

}

subgraph Identification {
label = "Identification"    

  node [ color = "#0000ff" ]

DDI4_AnnotatedIdentifiable [
  label = "{<id>DDI_AnnotatedIdentifiable}"

  tooltip = "Identification:AnnotatedIdentifiable"
]

}

subgraph Utility {
label = "Utility"    

  node [ color = "#0000ff" ]

DDI4_ExternalMaterial [
  label = "{<id>DDI_ExternalMaterial}"

  tooltip = "Utility:ExternalMaterial"
]

}

DDI4_Workflow -> DDI4_AnnotatedIdentifiable [arrowhead=onormal color="#000000"];

  DDI4_Workflow:Workflow_hasDesign_association -> DDI4_Design [ arrowhead=odiamond labeldistance=1.9 taillabel="0..1" headlabel="0..1" edgetooltip="hasDesign" fontcolor="black" color="#00000"];

  DDI4_Workflow:Workflow_hasPrecondition_association -> DDI4_Precondition [ arrowhead=odiamond labeldistance=1.9 taillabel="0..n" headlabel="0..n" edgetooltip="hasPrecondition" fontcolor="black" color="#00000"];

  DDI4_Workflow:Workflow_isDiscussedIn_association -> DDI4_ExternalMaterial [ arrowhead=odiamond labeldistance=1.9 taillabel="0..n" headlabel="0..n" edgetooltip="isDiscussedIn" fontcolor="black" color="#00000"];

  DDI4_Workflow:Workflow_contains_association -> DDI4_WorkflowSequence [ arrowhead=odiamond labeldistance=1.9 taillabel="0..n" headlabel="0..1" edgetooltip="contains" fontcolor="black" color="#00000"];

  DDI4_Workflow:Workflow_hasResults_association -> DDI4_Result [ arrowhead=odiamond labeldistance=1.9 taillabel="0..n" headlabel="0..n" edgetooltip="hasResults" fontcolor="black" color="#00000"];

  DDI4_Workflow:Workflow_hasAlgorithm_association -> DDI4_Algorithm [ arrowhead=odiamond labeldistance=1.9 taillabel="0..n" headlabel="0..n" edgetooltip="hasAlgorithm" fontcolor="black" color="#00000"];

  DDI4_Workflow:Workflow_realizes_association -> DDI4_Process [ arrowhead=none  edgetooltip="realizes" fontcolor="black" color="#00000"];

}