digraph G {
fontname = "Bitstream Vera Sans"
fontsize = 8

overlap=false;

compound=true;    

node [
  fontname = "Bitstream Vera Sans"
  fontsize = 8
  shape = "record"
]

edge [
  fontname = "Bitstream Vera Sans"
  fontsize = 8
  mode="ipsep"            
]


DDI4_InstrumentComponent [
  label = "{<id>InstrumentComponent | \l \l| <InstrumentComponent_hasInstructions_association> hasInstructions \l| <InstrumentComponent_hasExternalAids_association> hasExternalAids \l \l}"

  tooltip = "DataCapture:InstrumentComponent"
]

subgraph Workflows {
label = "Workflows"    

  node [ color = "#0000ff" ]

DDI4_Act [
  label = "{<id>DDI_Act}"

  tooltip = "Workflows:Act"
]

}

subgraph DataCapture {
label = "DataCapture"    

  node [ color = "#0000ff" ]

DDI4_ExternalAid [
  label = "{<id>DDI_ExternalAid}"

  tooltip = "DataCapture:ExternalAid"
]

DDI4_Instruction [
  label = "{<id>DDI_Instruction}"

  tooltip = "DataCapture:Instruction"
]

}

DDI4_InstrumentComponent -> DDI4_Act [arrowhead=onormal color="#000000"];

  DDI4_InstrumentComponent:InstrumentComponent_hasInstructions_association -> DDI4_Instruction [ arrowhead=odiamond labeldistance=1.9 taillabel="0..1" headlabel="0..n" edgetooltip="hasInstructions" fontcolor="black" color="#00000"];

  DDI4_InstrumentComponent:InstrumentComponent_hasExternalAids_association -> DDI4_ExternalAid [ arrowhead=odiamond labeldistance=1.9 taillabel="0..1" headlabel="0..n" edgetooltip="hasExternalAids" fontcolor="black" color="#00000"];

}