digraph G {
fontname = "Bitstream Vera Sans"
fontsize = 8

overlap=false;

compound=true;    

node [
  fontname = "Bitstream Vera Sans"
  fontsize = 8
  shape = "record"
]

edge [
  fontname = "Bitstream Vera Sans"
  fontsize = 8
  mode="ipsep"            
]


DDI4_Statement [
  label = "{<id>Statement | + statementText : DynamicText \l + purposeOfStatement : ExternalControlledVocabularyEntry \l \l \l| \l \l}"

  tooltip = "DataCapture:Statement"
]

subgraph DataCapture {
label = "DataCapture"    

  node [ color = "#0000ff" ]

DDI4_InstrumentComponent [
  label = "{<id>DDI_InstrumentComponent}"

  tooltip = "DataCapture:InstrumentComponent"
]

}

DDI4_Statement -> DDI4_InstrumentComponent [arrowhead=onormal color="#000000"];

}