digraph G {
fontname = "Bitstream Vera Sans"
fontsize = 8

overlap=false;

compound=true;    

node [
  fontname = "Bitstream Vera Sans"
  fontsize = 8
  shape = "record"
]

edge [
  fontname = "Bitstream Vera Sans"
  fontsize = 8
  mode="ipsep"            
]


DDI4_Category [
  label = "{<id>Category | + name : Name \l + displayLabel : DisplayLabel \l + descriptiveText : StructuredString \l \l \l| <Category_realizes_association> realizes \l \l}"

  tooltip = "Conceptual:Category"
]

subgraph CollectionsPattern {
label = "CollectionsPattern"    

  node [ color = "#0000ff" ]

DDI4_Member [
  label = "{<id>DDI_Member}"

  tooltip = "CollectionsPattern:Member"
]

}

subgraph Identification {
label = "Identification"    

  node [ color = "#0000ff" ]

DDI4_AnnotatedIdentifiable [
  label = "{<id>DDI_AnnotatedIdentifiable}"

  tooltip = "Identification:AnnotatedIdentifiable"
]

}

DDI4_Category -> DDI4_AnnotatedIdentifiable [arrowhead=onormal color="#000000"];

  DDI4_Category:Category_realizes_association -> DDI4_Member [ arrowhead=none  edgetooltip="realizes" fontcolor="black" color="#00000"];

}