digraph G {
fontname = "Bitstream Vera Sans"
fontsize = 8

overlap=false;

compound=true;    

node [
  fontname = "Bitstream Vera Sans"
  fontsize = 8
  shape = "record"
]

edge [
  fontname = "Bitstream Vera Sans"
  fontsize = 8
  mode="ipsep"            
]


DDI4_RepresentedVariable [
  label = "{<id>RepresentedVariable | + unitOfMeasurement :  \l + hasIntendedDataType : ExternalControlledVocabularyEntry \l \l \l| <RepresentedVariable_takesSubstantiveValuesFrom_association> takesSubstantiveValuesFrom \l| <RepresentedVariable_measures_association> measures \l| <RepresentedVariable_basedOnConceptualVariable_association> basedOnConceptualVariable \l \l}"

  tooltip = "Conceptual:RepresentedVariable"
]

subgraph Conceptual {
label = "Conceptual"    

  node [ color = "#0000ff" ]

DDI4_ConceptualVariable [
  label = "{<id>DDI_ConceptualVariable}"

  tooltip = "Conceptual:ConceptualVariable"
]

DDI4_Universe [
  label = "{<id>DDI_Universe}"

  tooltip = "Conceptual:Universe"
]

}

subgraph Representations {
label = "Representations"    

  node [ color = "#0000ff" ]

DDI4_SubstantiveValueDomain [
  label = "{<id>DDI_SubstantiveValueDomain}"

  tooltip = "Representations:SubstantiveValueDomain"
]

}

DDI4_RepresentedVariable -> DDI4_ConceptualVariable [arrowhead=onormal color="#000000"];

  DDI4_RepresentedVariable:RepresentedVariable_takesSubstantiveValuesFrom_association -> DDI4_SubstantiveValueDomain [ arrowhead=odiamond labeldistance=1.9 taillabel="0..n" headlabel="0..1" edgetooltip="takesSubstantiveValuesFrom" fontcolor="black" color="#00000"];

  DDI4_RepresentedVariable:RepresentedVariable_measures_association -> DDI4_Universe [ arrowhead=odiamond labeldistance=1.9 taillabel="0..n" headlabel="0..1" edgetooltip="measures" fontcolor="black" color="#00000"];

  DDI4_RepresentedVariable:RepresentedVariable_basedOnConceptualVariable_association -> DDI4_ConceptualVariable [ arrowhead=odiamond labeldistance=1.9 taillabel="0..n" headlabel="0..1" edgetooltip="basedOnConceptualVariable" fontcolor="black" color="#00000"];

}