digraph G {
fontname = "Bitstream Vera Sans"
fontsize = 8

overlap=false;

compound=true;    

node [
  fontname = "Bitstream Vera Sans"
  fontsize = 8
  shape = "record"
]

edge [
  fontname = "Bitstream Vera Sans"
  fontsize = 8
  mode="ipsep"            
]


DDI4_UnitType [
  label = "{<id>UnitType | + name : Name \l + displayLabel : DisplayLabel \l + descriptiveText : StructuredString \l \l \l| <UnitType_usesConcept_association> usesConcept \l| <UnitType_realizes_association> realizes \l \l}"

  tooltip = "Conceptual:UnitType"
]

subgraph Conceptual {
label = "Conceptual"    

  node [ color = "#0000ff" ]

DDI4_Concept [
  label = "{<id>DDI_Concept}"

  tooltip = "Conceptual:Concept"
]

}

subgraph CollectionsPattern {
label = "CollectionsPattern"    

  node [ color = "#0000ff" ]

DDI4_Member [
  label = "{<id>DDI_Member}"

  tooltip = "CollectionsPattern:Member"
]

}

subgraph Identification {
label = "Identification"    

  node [ color = "#0000ff" ]

DDI4_AnnotatedIdentifiable [
  label = "{<id>DDI_AnnotatedIdentifiable}"

  tooltip = "Identification:AnnotatedIdentifiable"
]

}

DDI4_UnitType -> DDI4_AnnotatedIdentifiable [arrowhead=onormal color="#000000"];

  DDI4_UnitType:UnitType_usesConcept_association -> DDI4_Concept [ arrowhead=odiamond labeldistance=1.9 taillabel="0..n" headlabel="0..1" edgetooltip="usesConcept" fontcolor="black" color="#00000"];

  DDI4_UnitType:UnitType_realizes_association -> DDI4_Member [ arrowhead=none  edgetooltip="realizes" fontcolor="black" color="#00000"];

}