digraph G {
fontname = "Bitstream Vera Sans"
fontsize = 8

overlap=false;

compound=true;    

node [
  fontname = "Bitstream Vera Sans"
  fontsize = 8
  shape = "record"
]

edge [
  fontname = "Bitstream Vera Sans"
  fontsize = 8
  mode="ipsep"            
]


DDI4_Algorithm [
  label = "{<id>Algorithm | + overview : StructuredString \l \l \l| <Algorithm_isDiscussedIn_association> isDiscussedIn \l \l}"

  tooltip = "MethodologyPattern:Algorithm"
]

subgraph Identification {
label = "Identification"    

  node [ color = "#0000ff" ]

DDI4_Identifiable [
  label = "{<id>DDI_Identifiable}"

  tooltip = "Identification:Identifiable"
]

}

subgraph Utility {
label = "Utility"    

  node [ color = "#0000ff" ]

DDI4_ExternalMaterial [
  label = "{<id>DDI_ExternalMaterial}"

  tooltip = "Utility:ExternalMaterial"
]

}

DDI4_Algorithm -> DDI4_Identifiable [arrowhead=onormal color="#000000"];

  DDI4_Algorithm:Algorithm_isDiscussedIn_association -> DDI4_ExternalMaterial [ arrowhead=odiamond labeldistance=1.9 taillabel="0..n" headlabel="0..n" edgetooltip="isDiscussedIn" fontcolor="black" color="#00000"];

}