digraph G {
fontname = "Bitstream Vera Sans"
fontsize = 8

overlap=false;

compound=true;    

node [
  fontname = "Bitstream Vera Sans"
  fontsize = 8
  shape = "record"
]

edge [
  fontname = "Bitstream Vera Sans"
  fontsize = 8
  mode="ipsep"            
]


DDI4_Process [
  label = "{<id>Process | + overview : StructuredString \l \l \l| <Process_hasDesign_association> hasDesign \l| <Process_hasPrecondition_association> hasPrecondition \l| <Process_isDiscussedIn_association> isDiscussedIn \l| <Process_contains_association> contains \l| <Process_hasResults_association> hasResults \l| <Process_implementsAlgorithm_association> implementsAlgorithm \l \l}"

  tooltip = "MethodologyPattern:Process"
]

subgraph ProcessPattern {
label = "ProcessPattern"    

  node [ color = "#0000ff" ]

DDI4_ProcessStep [
  label = "{<id>DDI_ProcessStep}"

  tooltip = "ProcessPattern:ProcessStep"
]

}

subgraph MethodologyPattern {
label = "MethodologyPattern"    

  node [ color = "#0000ff" ]

DDI4_Algorithm [
  label = "{<id>DDI_Algorithm}"

  tooltip = "MethodologyPattern:Algorithm"
]

DDI4_Design [
  label = "{<id>DDI_Design}"

  tooltip = "MethodologyPattern:Design"
]

}

subgraph Methodologies {
label = "Methodologies"    

  node [ color = "#0000ff" ]

DDI4_Precondition [
  label = "{<id>DDI_Precondition}"

  tooltip = "Methodologies:Precondition"
]

DDI4_Result [
  label = "{<id>DDI_Result}"

  tooltip = "Methodologies:Result"
]

}

subgraph Identification {
label = "Identification"    

  node [ color = "#0000ff" ]

DDI4_Identifiable [
  label = "{<id>DDI_Identifiable}"

  tooltip = "Identification:Identifiable"
]

}

subgraph Utility {
label = "Utility"    

  node [ color = "#0000ff" ]

DDI4_ExternalMaterial [
  label = "{<id>DDI_ExternalMaterial}"

  tooltip = "Utility:ExternalMaterial"
]

}

DDI4_Process -> DDI4_Identifiable [arrowhead=onormal color="#000000"];

  DDI4_Process:Process_hasDesign_association -> DDI4_Design [ arrowhead=odiamond labeldistance=1.9 taillabel="0..1" headlabel="0..1" edgetooltip="hasDesign" fontcolor="black" color="#00000"];

  DDI4_Process:Process_hasPrecondition_association -> DDI4_Precondition [ arrowhead=odiamond labeldistance=1.9 taillabel="0..n" headlabel="0..n" edgetooltip="hasPrecondition" fontcolor="black" color="#00000"];

  DDI4_Process:Process_isDiscussedIn_association -> DDI4_ExternalMaterial [ arrowhead=odiamond labeldistance=1.9 taillabel="0..n" headlabel="0..n" edgetooltip="isDiscussedIn" fontcolor="black" color="#00000"];

  DDI4_Process:Process_contains_association -> DDI4_ProcessStep [ arrowhead=odiamond labeldistance=1.9 taillabel="0..n" headlabel="0..1" edgetooltip="contains" fontcolor="black" color="#00000"];

  DDI4_Process:Process_hasResults_association -> DDI4_Result [ arrowhead=odiamond labeldistance=1.9 taillabel="0..n" headlabel="0..n" edgetooltip="hasResults" fontcolor="black" color="#00000"];

  DDI4_Process:Process_implementsAlgorithm_association -> DDI4_Algorithm [ arrowhead=odiamond labeldistance=1.9 taillabel="0..n" headlabel="0..n" edgetooltip="implementsAlgorithm" fontcolor="black" color="#00000"];

}