digraph G {
fontname = "Bitstream Vera Sans"
fontsize = 8

overlap=false;

compound=true;    

node [
  fontname = "Bitstream Vera Sans"
  fontsize = 8
  shape = "record"
]

edge [
  fontname = "Bitstream Vera Sans"
  fontsize = 8
  mode="ipsep"            
]


DDI4_Collection [
  label = "{<id>Collection | + type : CollectionType \l + name : Name \l + purpose : StructuredString \l \l \l| <Collection_contains_association> contains \l \l}"

  tooltip = "CollectionsPattern:Collection"
]

subgraph CollectionsPattern {
label = "CollectionsPattern"    

  node [ color = "#0000ff" ]

DDI4_Member [
  label = "{<id>DDI_Member}"

  tooltip = "CollectionsPattern:Member"
]

}

DDI4_Collection -> DDI4_Member [arrowhead=onormal color="#000000"];

  DDI4_Collection:Collection_contains_association -> DDI4_Member [ arrowhead=odiamond labeldistance=1.9 taillabel="0..n" headlabel="0..n" edgetooltip="contains" fontcolor="black" color="#00000"];

}