digraph G {
fontname = "Bitstream Vera Sans"
fontsize = 8

overlap=false;

compound=true;    

node [
  fontname = "Bitstream Vera Sans"
  fontsize = 8
  shape = "record"
]

edge [
  fontname = "Bitstream Vera Sans"
  fontsize = 8
  mode="ipsep"            
]


DDI4_OrderedTuple [
  label = "{<id>OrderedTuple | \l \l| <OrderedTuple_source_association> source \l| <OrderedTuple_target_association> target \l \l}"

  tooltip = "CollectionsPattern:OrderedTuple"
]

subgraph CollectionsPattern {
label = "CollectionsPattern"    

  node [ color = "#0000ff" ]

DDI4_Member [
  label = "{<id>DDI_Member}"

  tooltip = "CollectionsPattern:Member"
]

}

subgraph Identification {
label = "Identification"    

  node [ color = "#0000ff" ]

DDI4_Identifiable [
  label = "{<id>DDI_Identifiable}"

  tooltip = "Identification:Identifiable"
]

}

DDI4_OrderedTuple -> DDI4_Identifiable [arrowhead=onormal color="#000000"];

  DDI4_OrderedTuple:OrderedTuple_source_association -> DDI4_Member [ arrowhead=diamond labeldistance=1.9 taillabel="0..n" headlabel="1..n" edgetooltip="source" fontcolor="black" color="#00000"];

  DDI4_OrderedTuple:OrderedTuple_target_association -> DDI4_Member [ arrowhead=diamond labeldistance=1.9 taillabel="0..n" headlabel="1..n" edgetooltip="target" fontcolor="black" color="#00000"];

}