digraph G {
fontname = "Bitstream Vera Sans"
fontsize = 8

overlap=false;

compound=true;    

node [
  fontname = "Bitstream Vera Sans"
  fontsize = 8
  shape = "record"
]

edge [
  fontname = "Bitstream Vera Sans"
  fontsize = 8
  mode="ipsep"            
]


DDI4_StrictOrderRelation [
  label = "{<id>StrictOrderRelation | + criteria : StructuredString \l + semantics : ExternalControlledVocabularyEntry \l + reflexivity : ReflexivityType \l + symmetry : SymmetryType \l + transitivity : TransitivityType \l \l \l| \l \l}"

  tooltip = "CollectionsPattern:StrictOrderRelation"
]

subgraph CollectionsPattern {
label = "CollectionsPattern"    

  node [ color = "#0000ff" ]

DDI4_AsymmetricBinaryRelation [
  label = "{<id>DDI_AsymmetricBinaryRelation}"

  tooltip = "CollectionsPattern:AsymmetricBinaryRelation"
]

}

DDI4_StrictOrderRelation -> DDI4_AsymmetricBinaryRelation [arrowhead=onormal color="#000000"];

}