digraph G {
fontname = "Bitstream Vera Sans"
fontsize = 8

overlap=false;

compound=true;    

node [
  fontname = "Bitstream Vera Sans"
  fontsize = 8
  shape = "record"
]

edge [
  fontname = "Bitstream Vera Sans"
  fontsize = 8
  mode="ipsep"            
]


DDI4_UnorderedTuple [
  label = "{<id>UnorderedTuple | \l \l| <UnorderedTuple_maps_association> maps \l \l}"

  tooltip = "CollectionsPattern:UnorderedTuple"
]

subgraph CollectionsPattern {
label = "CollectionsPattern"    

  node [ color = "#0000ff" ]

DDI4_Member [
  label = "{<id>DDI_Member}"

  tooltip = "CollectionsPattern:Member"
]

}

subgraph Identification {
label = "Identification"    

  node [ color = "#0000ff" ]

DDI4_Identifiable [
  label = "{<id>DDI_Identifiable}"

  tooltip = "Identification:Identifiable"
]

}

DDI4_UnorderedTuple -> DDI4_Identifiable [arrowhead=onormal color="#000000"];

  DDI4_UnorderedTuple:UnorderedTuple_maps_association -> DDI4_Member [ arrowhead=diamond labeldistance=1.9 taillabel="0..n" headlabel="2..n" edgetooltip="maps" fontcolor="black" color="#00000"];

}