digraph G {
fontname = "Bitstream Vera Sans"
fontsize = 8

overlap=false;

compound=true;    

node [
  fontname = "Bitstream Vera Sans"
  fontsize = 8
  shape = "record"
]

edge [
  fontname = "Bitstream Vera Sans"
  fontsize = 8
  mode="ipsep"            
]


DDI4_SegmentByDDI [
  label = "{<id>SegmentByDDI | \l \l| <SegmentByDDI_definedBy_association> definedBy \l \l}"

  tooltip = "SegmentLocationSpecifications:SegmentByDDI"
]

subgraph SegmentLocationSpecifications {
label = "SegmentLocationSpecifications"    

  node [ color = "#0000ff" ]

DDI4_PhysicalSegmentLocation [
  label = "{<id>DDI_PhysicalSegmentLocation}"

  tooltip = "SegmentLocationSpecifications:PhysicalSegmentLocation"
]

}

subgraph Identification {
label = "Identification"    

  node [ color = "#0000ff" ]

DDI4_Identifiable [
  label = "{<id>DDI_Identifiable}"

  tooltip = "Identification:Identifiable"
]

}

DDI4_SegmentByDDI -> DDI4_PhysicalSegmentLocation [arrowhead=onormal color="#000000"];

  DDI4_SegmentByDDI:SegmentByDDI_definedBy_association -> DDI4_Identifiable [ arrowhead=odiamond labeldistance=1.9 taillabel="1..1" headlabel="0..n" edgetooltip="definedBy" fontcolor="black" color="#00000"];

}