digraph G {
fontname = "Bitstream Vera Sans"
fontsize = 8

overlap=false;

compound=true;    

node [
  fontname = "Bitstream Vera Sans"
  fontsize = 8
  shape = "record"
]

edge [
  fontname = "Bitstream Vera Sans"
  fontsize = 8
  mode="ipsep"            
]


DDI4_CollectionItem [
  label = "{<id>CollectionItem | \l \l| <CollectionItem_describesAccess_association> describesAccess \l| <CollectionItem_hasCoverage_association> hasCoverage \l| <CollectionItem_hasFunding_association> hasFunding \l| <CollectionItem_belongsToSeries_association> belongsToSeries \l| <CollectionItem_realizes_association> realizes \l \l}"

  tooltip = "Discovery:CollectionItem"
]

subgraph Discovery {
label = "Discovery"    

  node [ color = "#0000ff" ]

DDI4_Access [
  label = "{<id>DDI_Access}"

  tooltip = "Discovery:Access"
]

DDI4_Coverage [
  label = "{<id>DDI_Coverage}"

  tooltip = "Discovery:Coverage"
]

DDI4_SeriesStatement [
  label = "{<id>DDI_SeriesStatement}"

  tooltip = "Discovery:SeriesStatement"
]

}

subgraph CollectionsPattern {
label = "CollectionsPattern"    

  node [ color = "#0000ff" ]

DDI4_Member [
  label = "{<id>DDI_Member}"

  tooltip = "CollectionsPattern:Member"
]

}

subgraph Identification {
label = "Identification"    

  node [ color = "#0000ff" ]

DDI4_AnnotatedIdentifiable [
  label = "{<id>DDI_AnnotatedIdentifiable}"

  tooltip = "Identification:AnnotatedIdentifiable"
]

}

subgraph Utility {
label = "Utility"    

  node [ color = "#0000ff" ]

DDI4_FundingInformation [
  label = "{<id>DDI_FundingInformation}"

  tooltip = "Utility:FundingInformation"
]

}

DDI4_CollectionItem -> DDI4_AnnotatedIdentifiable [arrowhead=onormal color="#000000"];

  DDI4_CollectionItem:CollectionItem_describesAccess_association -> DDI4_Access [ arrowhead=odiamond labeldistance=1.9 taillabel="0..n" headlabel="0..n" edgetooltip="describesAccess" fontcolor="black" color="#00000"];

  DDI4_CollectionItem:CollectionItem_hasCoverage_association -> DDI4_Coverage [ arrowhead=odiamond labeldistance=1.9 taillabel="0..n" headlabel="0..1" edgetooltip="hasCoverage" fontcolor="black" color="#00000"];

  DDI4_CollectionItem:CollectionItem_hasFunding_association -> DDI4_FundingInformation [ arrowhead=odiamond labeldistance=1.9 taillabel="0..n" headlabel="0..n" edgetooltip="hasFunding" fontcolor="black" color="#00000"];

  DDI4_CollectionItem:CollectionItem_belongsToSeries_association -> DDI4_SeriesStatement [ arrowhead=odiamond labeldistance=1.9 taillabel="0..n" headlabel="0..n" edgetooltip="belongsToSeries" fontcolor="black" color="#00000"];

  DDI4_CollectionItem:CollectionItem_realizes_association -> DDI4_Member [ arrowhead=none  edgetooltip="realizes" fontcolor="black" color="#00000"];

}