digraph G {
fontname = "Bitstream Vera Sans"
fontsize = 8

overlap=false;

compound=true;    

node [
  fontname = "Bitstream Vera Sans"
  fontsize = 8
  shape = "record"
]

edge [
  fontname = "Bitstream Vera Sans"
  fontsize = 8
  mode="ipsep"            
]


DDI4_SeriesStatement [
  label = "{<id>SeriesStatement | + citationOfSeries : Annotation \l \l \l| <SeriesStatement_coverageOfSeries_association> coverageOfSeries \l \l}"

  tooltip = "Discovery:SeriesStatement"
]

subgraph Discovery {
label = "Discovery"    

  node [ color = "#0000ff" ]

DDI4_Coverage [
  label = "{<id>DDI_Coverage}"

  tooltip = "Discovery:Coverage"
]

}

subgraph Identification {
label = "Identification"    

  node [ color = "#0000ff" ]

DDI4_Identifiable [
  label = "{<id>DDI_Identifiable}"

  tooltip = "Identification:Identifiable"
]

}

DDI4_SeriesStatement -> DDI4_Identifiable [arrowhead=onormal color="#000000"];

  DDI4_SeriesStatement:SeriesStatement_coverageOfSeries_association -> DDI4_Coverage [ arrowhead=odiamond labeldistance=1.9 taillabel="0..n" headlabel="0..1" edgetooltip="coverageOfSeries" fontcolor="black" color="#00000"];

}