digraph G {
fontname = "Bitstream Vera Sans"
fontsize = 8

overlap=false;

compound=true;    

node [
  fontname = "Bitstream Vera Sans"
  fontsize = 8
  shape = "record"
]

edge [
  fontname = "Bitstream Vera Sans"
  fontsize = 8
  mode="ipsep"            
]


DDI4_AnnotatedIdentifiable [
  label = "{<id>AnnotatedIdentifiable | + hasAnnotation : Annotation \l \l \l| \l \l}"

  tooltip = "Identification:AnnotatedIdentifiable"
]

DDI4_Identifiable [
  label = "{<id>Identifiable | + agency :  \l + id :  \l + version :  \l + versionResponsibility :  \l + versionRationale :  \l + versionDate : IsoDate \l + isUniversallyUnique :  \l + isPersistent :  \l + localId : LocalId \l + basedOnObject : BasedOnObject \l \l \l| \l \l}"

  tooltip = "Identification:Identifiable"
]

DDI4_AnnotatedIdentifiable -> DDI4_Identifiable [arrowhead=onormal color="#000000"];

DDI4_Identifiable -> DDI4_ [arrowhead=onormal color="#000000"];

}